{
  "build": "pyhd3eb1b0_0",
  "build_number": 0,
  "channel": "https://repo.anaconda.com/pkgs/main/noarch",
  "constrains": [],
  "depends": [
    "markupsafe >=0.23",
    "python",
    "setuptools"
  ],
  "extracted_package_dir": "/home/ec2-user/anaconda3/pkgs/jinja2-2.11.3-pyhd3eb1b0_0",
  "features": "",
  "files": [
    "lib/python3.7/site-packages/Jinja2-2.11.3.dist-info/INSTALLER",
    "lib/python3.7/site-packages/Jinja2-2.11.3.dist-info/LICENSE.rst",
    "lib/python3.7/site-packages/Jinja2-2.11.3.dist-info/METADATA",
    "lib/python3.7/site-packages/Jinja2-2.11.3.dist-info/RECORD",
    "lib/python3.7/site-packages/Jinja2-2.11.3.dist-info/REQUESTED",
    "lib/python3.7/site-packages/Jinja2-2.11.3.dist-info/WHEEL",
    "lib/python3.7/site-packages/Jinja2-2.11.3.dist-info/direct_url.json",
    "lib/python3.7/site-packages/Jinja2-2.11.3.dist-info/entry_points.txt",
    "lib/python3.7/site-packages/Jinja2-2.11.3.dist-info/top_level.txt",
    "lib/python3.7/site-packages/jinja2/__init__.py",
    "lib/python3.7/site-packages/jinja2/_compat.py",
    "lib/python3.7/site-packages/jinja2/_identifier.py",
    "lib/python3.7/site-packages/jinja2/asyncfilters.py",
    "lib/python3.7/site-packages/jinja2/asyncsupport.py",
    "lib/python3.7/site-packages/jinja2/bccache.py",
    "lib/python3.7/site-packages/jinja2/compiler.py",
    "lib/python3.7/site-packages/jinja2/constants.py",
    "lib/python3.7/site-packages/jinja2/debug.py",
    "lib/python3.7/site-packages/jinja2/defaults.py",
    "lib/python3.7/site-packages/jinja2/environment.py",
    "lib/python3.7/site-packages/jinja2/exceptions.py",
    "lib/python3.7/site-packages/jinja2/ext.py",
    "lib/python3.7/site-packages/jinja2/filters.py",
    "lib/python3.7/site-packages/jinja2/idtracking.py",
    "lib/python3.7/site-packages/jinja2/lexer.py",
    "lib/python3.7/site-packages/jinja2/loaders.py",
    "lib/python3.7/site-packages/jinja2/meta.py",
    "lib/python3.7/site-packages/jinja2/nativetypes.py",
    "lib/python3.7/site-packages/jinja2/nodes.py",
    "lib/python3.7/site-packages/jinja2/optimizer.py",
    "lib/python3.7/site-packages/jinja2/parser.py",
    "lib/python3.7/site-packages/jinja2/runtime.py",
    "lib/python3.7/site-packages/jinja2/sandbox.py",
    "lib/python3.7/site-packages/jinja2/tests.py",
    "lib/python3.7/site-packages/jinja2/utils.py",
    "lib/python3.7/site-packages/jinja2/visitor.py",
    "lib/python3.7/site-packages/jinja2/__pycache__/__init__.cpython-37.pyc",
    "lib/python3.7/site-packages/jinja2/__pycache__/_compat.cpython-37.pyc",
    "lib/python3.7/site-packages/jinja2/__pycache__/_identifier.cpython-37.pyc",
    "lib/python3.7/site-packages/jinja2/__pycache__/asyncfilters.cpython-37.pyc",
    "lib/python3.7/site-packages/jinja2/__pycache__/asyncsupport.cpython-37.pyc",
    "lib/python3.7/site-packages/jinja2/__pycache__/bccache.cpython-37.pyc",
    "lib/python3.7/site-packages/jinja2/__pycache__/compiler.cpython-37.pyc",
    "lib/python3.7/site-packages/jinja2/__pycache__/constants.cpython-37.pyc",
    "lib/python3.7/site-packages/jinja2/__pycache__/debug.cpython-37.pyc",
    "lib/python3.7/site-packages/jinja2/__pycache__/defaults.cpython-37.pyc",
    "lib/python3.7/site-packages/jinja2/__pycache__/environment.cpython-37.pyc",
    "lib/python3.7/site-packages/jinja2/__pycache__/exceptions.cpython-37.pyc",
    "lib/python3.7/site-packages/jinja2/__pycache__/ext.cpython-37.pyc",
    "lib/python3.7/site-packages/jinja2/__pycache__/filters.cpython-37.pyc",
    "lib/python3.7/site-packages/jinja2/__pycache__/idtracking.cpython-37.pyc",
    "lib/python3.7/site-packages/jinja2/__pycache__/lexer.cpython-37.pyc",
    "lib/python3.7/site-packages/jinja2/__pycache__/loaders.cpython-37.pyc",
    "lib/python3.7/site-packages/jinja2/__pycache__/meta.cpython-37.pyc",
    "lib/python3.7/site-packages/jinja2/__pycache__/nativetypes.cpython-37.pyc",
    "lib/python3.7/site-packages/jinja2/__pycache__/nodes.cpython-37.pyc",
    "lib/python3.7/site-packages/jinja2/__pycache__/optimizer.cpython-37.pyc",
    "lib/python3.7/site-packages/jinja2/__pycache__/parser.cpython-37.pyc",
    "lib/python3.7/site-packages/jinja2/__pycache__/runtime.cpython-37.pyc",
    "lib/python3.7/site-packages/jinja2/__pycache__/sandbox.cpython-37.pyc",
    "lib/python3.7/site-packages/jinja2/__pycache__/tests.cpython-37.pyc",
    "lib/python3.7/site-packages/jinja2/__pycache__/utils.cpython-37.pyc",
    "lib/python3.7/site-packages/jinja2/__pycache__/visitor.cpython-37.pyc"
  ],
  "fn": "jinja2-2.11.3-pyhd3eb1b0_0.tar.bz2",
  "license": "BSD-3-Clause",
  "link": {
    "source": "/home/ec2-user/anaconda3/pkgs/jinja2-2.11.3-pyhd3eb1b0_0",
    "type": 1
  },
  "md5": "e3d2afca7f53449172cb027b2164df6b",
  "name": "jinja2",
  "noarch": "python",
  "package_tarball_full_path": "/home/ec2-user/anaconda3/pkgs/jinja2-2.11.3-pyhd3eb1b0_0.tar.bz2",
  "paths_data": {
    "paths": [
      {
        "_path": "site-packages/Jinja2-2.11.3.dist-info/INSTALLER",
        "path_type": "hardlink",
        "sha256": "d0edee15f91b406f3f99726e44eb990be6e34fd0345b52b910c568e0eef6a2a8",
        "sha256_in_prefix": "d0edee15f91b406f3f99726e44eb990be6e34fd0345b52b910c568e0eef6a2a8",
        "size_in_bytes": 5
      },
      {
        "_path": "site-packages/Jinja2-2.11.3.dist-info/LICENSE.rst",
        "path_type": "hardlink",
        "sha256": "3b49dcee4105eb37bac10faf1be260408fe85d252b8e9df2e0979fc1e094437b",
        "sha256_in_prefix": "3b49dcee4105eb37bac10faf1be260408fe85d252b8e9df2e0979fc1e094437b",
        "size_in_bytes": 1475
      },
      {
        "_path": "site-packages/Jinja2-2.11.3.dist-info/METADATA",
        "path_type": "hardlink",
        "sha256": "3ec7292750b7452a7cc5c8d5ddf02e4f3d77aca6c6c66cc95e7310147f962a1b",
        "sha256_in_prefix": "3ec7292750b7452a7cc5c8d5ddf02e4f3d77aca6c6c66cc95e7310147f962a1b",
        "size_in_bytes": 3535
      },
      {
        "_path": "site-packages/Jinja2-2.11.3.dist-info/RECORD",
        "path_type": "hardlink",
        "sha256": "a174ca652c09ff31cda9233fbf4b3ff31443f29707cc10cc146e89ba2768acc8",
        "sha256_in_prefix": "a174ca652c09ff31cda9233fbf4b3ff31443f29707cc10cc146e89ba2768acc8",
        "size_in_bytes": 4048
      },
      {
        "_path": "site-packages/Jinja2-2.11.3.dist-info/REQUESTED",
        "path_type": "hardlink",
        "sha256": "e3b0c44298fc1c149afbf4c8996fb92427ae41e4649b934ca495991b7852b855",
        "sha256_in_prefix": "e3b0c44298fc1c149afbf4c8996fb92427ae41e4649b934ca495991b7852b855",
        "size_in_bytes": 0
      },
      {
        "_path": "site-packages/Jinja2-2.11.3.dist-info/WHEEL",
        "path_type": "hardlink",
        "sha256": "67e9f2629c2b712ab17ddbb1e4c6e7fc3439db988fec9d831b72601af398c934",
        "sha256_in_prefix": "67e9f2629c2b712ab17ddbb1e4c6e7fc3439db988fec9d831b72601af398c934",
        "size_in_bytes": 110
      },
      {
        "_path": "site-packages/Jinja2-2.11.3.dist-info/direct_url.json",
        "path_type": "hardlink",
        "sha256": "8d4f2cdce61707dab5811e2acce548e9d115be5c136643ff63ee9c38cb812036",
        "sha256_in_prefix": "8d4f2cdce61707dab5811e2acce548e9d115be5c136643ff63ee9c38cb812036",
        "size_in_bytes": 79
      },
      {
        "_path": "site-packages/Jinja2-2.11.3.dist-info/entry_points.txt",
        "path_type": "hardlink",
        "sha256": "432fc3915a3a5e3ff3cceb6612bac04def251d984ea9d8e9b777b8249006ca2f",
        "sha256_in_prefix": "432fc3915a3a5e3ff3cceb6612bac04def251d984ea9d8e9b777b8249006ca2f",
        "size_in_bytes": 61
      },
      {
        "_path": "site-packages/Jinja2-2.11.3.dist-info/top_level.txt",
        "path_type": "hardlink",
        "sha256": "3e47955ad2dbdfe0aa8d68b57cedbd3826e3e791215ff72184aac276b55eff3b",
        "sha256_in_prefix": "3e47955ad2dbdfe0aa8d68b57cedbd3826e3e791215ff72184aac276b55eff3b",
        "size_in_bytes": 7
      },
      {
        "_path": "site-packages/jinja2/__init__.py",
        "path_type": "hardlink",
        "sha256": "2d95179b125cd8621c85f48078c5acc425a24183bec35fbbdfa7f643723c9acf",
        "sha256_in_prefix": "2d95179b125cd8621c85f48078c5acc425a24183bec35fbbdfa7f643723c9acf",
        "size_in_bytes": 1549
      },
      {
        "_path": "site-packages/jinja2/_compat.py",
        "path_type": "hardlink",
        "sha256": "07a49ef078e75d5a73cfdfaf7c77a39fe0d5d8d8da54af887b0ba973990a96ef",
        "sha256_in_prefix": "07a49ef078e75d5a73cfdfaf7c77a39fe0d5d8d8da54af887b0ba973990a96ef",
        "size_in_bytes": 3191
      },
      {
        "_path": "site-packages/jinja2/_identifier.py",
        "path_type": "hardlink",
        "sha256": "11d80624a8bb3b5cafaf8c8596fa8f344a95e8cd6a1f242bf06b7c1a65532953",
        "sha256_in_prefix": "11d80624a8bb3b5cafaf8c8596fa8f344a95e8cd6a1f242bf06b7c1a65532953",
        "size_in_bytes": 1775
      },
      {
        "_path": "site-packages/jinja2/asyncfilters.py",
        "path_type": "hardlink",
        "sha256": "5c9b585d3c45bdc279c7093a49a0cbe12d283674f4c0f62f5c1092cdce3cd9f2",
        "sha256_in_prefix": "5c9b585d3c45bdc279c7093a49a0cbe12d283674f4c0f62f5c1092cdce3cd9f2",
        "size_in_bytes": 4250
      },
      {
        "_path": "site-packages/jinja2/asyncsupport.py",
        "path_type": "hardlink",
        "sha256": "64116c0cbbaadc6b638b721af3b95ccae0dba9a1d925176d4a165cab0a459d24",
        "sha256_in_prefix": "64116c0cbbaadc6b638b721af3b95ccae0dba9a1d925176d4a165cab0a459d24",
        "size_in_bytes": 7209
      },
      {
        "_path": "site-packages/jinja2/bccache.py",
        "path_type": "hardlink",
        "sha256": "dcf9a9e23a3ae4cf4542e231771a0305b1031707b869c0cc41fefb9c425fac70",
        "sha256_in_prefix": "dcf9a9e23a3ae4cf4542e231771a0305b1031707b869c0cc41fefb9c425fac70",
        "size_in_bytes": 12139
      },
      {
        "_path": "site-packages/jinja2/compiler.py",
        "path_type": "hardlink",
        "sha256": "4daf56d4b8ade78db022d0075e50dc834b043ac143322ac276514f1c0bab838a",
        "sha256_in_prefix": "4daf56d4b8ade78db022d0075e50dc834b043ac143322ac276514f1c0bab838a",
        "size_in_bytes": 66284
      },
      {
        "_path": "site-packages/jinja2/constants.py",
        "path_type": "hardlink",
        "sha256": "451d6c4f337352629ca3a69989cc382694292460ae3eeaa6d61d589823541056",
        "sha256_in_prefix": "451d6c4f337352629ca3a69989cc382694292460ae3eeaa6d61d589823541056",
        "size_in_bytes": 1458
      },
      {
        "_path": "site-packages/jinja2/debug.py",
        "path_type": "hardlink",
        "sha256": "9de47b1881868d91f7fc82c9195518cb778b40209a58931739bee8d241889d67",
        "sha256_in_prefix": "9de47b1881868d91f7fc82c9195518cb778b40209a58931739bee8d241889d67",
        "size_in_bytes": 8529
      },
      {
        "_path": "site-packages/jinja2/defaults.py",
        "path_type": "hardlink",
        "sha256": "f3907a614502c963d276b49e56172a155baefdb1d40105de7b2fbe148c127954",
        "sha256_in_prefix": "f3907a614502c963d276b49e56172a155baefdb1d40105de7b2fbe148c127954",
        "size_in_bytes": 1126
      },
      {
        "_path": "site-packages/jinja2/environment.py",
        "path_type": "hardlink",
        "sha256": "5c348b29ce12a8d2cc3b04d2ab74db584c80e56c977ee2ee543d300158c41703",
        "sha256_in_prefix": "5c348b29ce12a8d2cc3b04d2ab74db584c80e56c977ee2ee543d300158c41703",
        "size_in_bytes": 50629
      },
      {
        "_path": "site-packages/jinja2/exceptions.py",
        "path_type": "hardlink",
        "sha256": "56334b6b07267f63837dfa9530240ad5c466bc56947d0585e2ef28b8fdd03dc1",
        "sha256_in_prefix": "56334b6b07267f63837dfa9530240ad5c466bc56947d0585e2ef28b8fdd03dc1",
        "size_in_bytes": 5425
      },
      {
        "_path": "site-packages/jinja2/ext.py",
        "path_type": "hardlink",
        "sha256": "02dc0be4ee5e9d3fcbdc747dfa806f846c944dd1a8c9aa86fc80ad9d1fc455de",
        "sha256_in_prefix": "02dc0be4ee5e9d3fcbdc747dfa806f846c944dd1a8c9aa86fc80ad9d1fc455de",
        "size_in_bytes": 26441
      },
      {
        "_path": "site-packages/jinja2/filters.py",
        "path_type": "hardlink",
        "sha256": "f4e46296c66b528c9d488f6ea73f3fa86cbb828cc358b6281669480454954674",
        "sha256_in_prefix": "f4e46296c66b528c9d488f6ea73f3fa86cbb828cc358b6281669480454954674",
        "size_in_bytes": 41439
      },
      {
        "_path": "site-packages/jinja2/idtracking.py",
        "path_type": "hardlink",
        "sha256": "2773b8547b2b6dfdf0cf088173b0aba36ea41dbebfe646d42de20ece871c8485",
        "sha256_in_prefix": "2773b8547b2b6dfdf0cf088173b0aba36ea41dbebfe646d42de20ece871c8485",
        "size_in_bytes": 9211
      },
      {
        "_path": "site-packages/jinja2/lexer.py",
        "path_type": "hardlink",
        "sha256": "9d414b44a8612a69845a42c8eb99d078f81c42ceeab117635586444ccb7fbf48",
        "sha256_in_prefix": "9d414b44a8612a69845a42c8eb99d078f81c42ceeab117635586444ccb7fbf48",
        "size_in_bytes": 30331
      },
      {
        "_path": "site-packages/jinja2/loaders.py",
        "path_type": "hardlink",
        "sha256": "0be7d24ff766163816929d19b8292b808080a0eb28488176f307c01629e4d285",
        "sha256_in_prefix": "0be7d24ff766163816929d19b8292b808080a0eb28488176f307c01629e4d285",
        "size_in_bytes": 17666
      },
      {
        "_path": "site-packages/jinja2/meta.py",
        "path_type": "hardlink",
        "sha256": "423c9885f3510f74025e3049a623e5f4a82412419725b024094ab8f94af5d044",
        "sha256_in_prefix": "423c9885f3510f74025e3049a623e5f4a82412419725b024094ab8f94af5d044",
        "size_in_bytes": 4131
      },
      {
        "_path": "site-packages/jinja2/nativetypes.py",
        "path_type": "hardlink",
        "sha256": "525fff82d570e311fed2abd4be708d1de75078d0f0984bb22c9cedcf348f7918",
        "sha256_in_prefix": "525fff82d570e311fed2abd4be708d1de75078d0f0984bb22c9cedcf348f7918",
        "size_in_bytes": 2753
      },
      {
        "_path": "site-packages/jinja2/nodes.py",
        "path_type": "hardlink",
        "sha256": "324d6824f5602239d0c3d58ea882ef72edeb2dea5c159d1a871426da66f00f07",
        "sha256_in_prefix": "324d6824f5602239d0c3d58ea882ef72edeb2dea5c159d1a871426da66f00f07",
        "size_in_bytes": 31095
      },
      {
        "_path": "site-packages/jinja2/optimizer.py",
        "path_type": "hardlink",
        "sha256": "8102e5318cef42196e873980205035b574b473081660e8e9acdfa04d170756c7",
        "sha256_in_prefix": "8102e5318cef42196e873980205035b574b473081660e8e9acdfa04d170756c7",
        "size_in_bytes": 1457
      },
      {
        "_path": "site-packages/jinja2/parser.py",
        "path_type": "hardlink",
        "sha256": "7dc7dda9e3cd4cdcafa2c22f7336f2b55037df6aa9b1446f6270867230c74a40",
        "sha256_in_prefix": "7dc7dda9e3cd4cdcafa2c22f7336f2b55037df6aa9b1446f6270867230c74a40",
        "size_in_bytes": 35660
      },
      {
        "_path": "site-packages/jinja2/runtime.py",
        "path_type": "hardlink",
        "sha256": "d32f8147220467d96d0722f621de86a477b5a0345003035e42f23448aa1b34cc",
        "sha256_in_prefix": "d32f8147220467d96d0722f621de86a477b5a0345003035e42f23448aa1b34cc",
        "size_in_bytes": 30618
      },
      {
        "_path": "site-packages/jinja2/sandbox.py",
        "path_type": "hardlink",
        "sha256": "9276b2c94bd7b19f85d26935e663b6f9e84af60b30d3852107cb5dfa250eb4b7",
        "sha256_in_prefix": "9276b2c94bd7b19f85d26935e663b6f9e84af60b30d3852107cb5dfa250eb4b7",
        "size_in_bytes": 17127
      },
      {
        "_path": "site-packages/jinja2/tests.py",
        "path_type": "hardlink",
        "sha256": "88efd8fbd568eb4ceb55ed653294a5e6c287a80c5eda57991c2d3c3a867c2b6e",
        "sha256_in_prefix": "88efd8fbd568eb4ceb55ed653294a5e6c287a80c5eda57991c2d3c3a867c2b6e",
        "size_in_bytes": 4799
      },
      {
        "_path": "site-packages/jinja2/utils.py",
        "path_type": "hardlink",
        "sha256": "5b2e320b7201caa516c272a59fa49d6a2c5dce02bbe0fe85e677fe81066b6275",
        "sha256_in_prefix": "5b2e320b7201caa516c272a59fa49d6a2c5dce02bbe0fe85e677fe81066b6275",
        "size_in_bytes": 22436
      },
      {
        "_path": "site-packages/jinja2/visitor.py",
        "path_type": "hardlink",
        "sha256": "0d41eea65d1ae0f1a9ee7c51b5916db54cc08b571cc73a9cda1cdeb4f614cfc5",
        "sha256_in_prefix": "0d41eea65d1ae0f1a9ee7c51b5916db54cc08b571cc73a9cda1cdeb4f614cfc5",
        "size_in_bytes": 3240
      },
      {
        "_path": "lib/python3.7/site-packages/jinja2/__pycache__/__init__.cpython-37.pyc",
        "path_type": "pyc_file"
      },
      {
        "_path": "lib/python3.7/site-packages/jinja2/__pycache__/_compat.cpython-37.pyc",
        "path_type": "pyc_file"
      },
      {
        "_path": "lib/python3.7/site-packages/jinja2/__pycache__/_identifier.cpython-37.pyc",
        "path_type": "pyc_file"
      },
      {
        "_path": "lib/python3.7/site-packages/jinja2/__pycache__/asyncfilters.cpython-37.pyc",
        "path_type": "pyc_file"
      },
      {
        "_path": "lib/python3.7/site-packages/jinja2/__pycache__/asyncsupport.cpython-37.pyc",
        "path_type": "pyc_file"
      },
      {
        "_path": "lib/python3.7/site-packages/jinja2/__pycache__/bccache.cpython-37.pyc",
        "path_type": "pyc_file"
      },
      {
        "_path": "lib/python3.7/site-packages/jinja2/__pycache__/compiler.cpython-37.pyc",
        "path_type": "pyc_file"
      },
      {
        "_path": "lib/python3.7/site-packages/jinja2/__pycache__/constants.cpython-37.pyc",
        "path_type": "pyc_file"
      },
      {
        "_path": "lib/python3.7/site-packages/jinja2/__pycache__/debug.cpython-37.pyc",
        "path_type": "pyc_file"
      },
      {
        "_path": "lib/python3.7/site-packages/jinja2/__pycache__/defaults.cpython-37.pyc",
        "path_type": "pyc_file"
      },
      {
        "_path": "lib/python3.7/site-packages/jinja2/__pycache__/environment.cpython-37.pyc",
        "path_type": "pyc_file"
      },
      {
        "_path": "lib/python3.7/site-packages/jinja2/__pycache__/exceptions.cpython-37.pyc",
        "path_type": "pyc_file"
      },
      {
        "_path": "lib/python3.7/site-packages/jinja2/__pycache__/ext.cpython-37.pyc",
        "path_type": "pyc_file"
      },
      {
        "_path": "lib/python3.7/site-packages/jinja2/__pycache__/filters.cpython-37.pyc",
        "path_type": "pyc_file"
      },
      {
        "_path": "lib/python3.7/site-packages/jinja2/__pycache__/idtracking.cpython-37.pyc",
        "path_type": "pyc_file"
      },
      {
        "_path": "lib/python3.7/site-packages/jinja2/__pycache__/lexer.cpython-37.pyc",
        "path_type": "pyc_file"
      },
      {
        "_path": "lib/python3.7/site-packages/jinja2/__pycache__/loaders.cpython-37.pyc",
        "path_type": "pyc_file"
      },
      {
        "_path": "lib/python3.7/site-packages/jinja2/__pycache__/meta.cpython-37.pyc",
        "path_type": "pyc_file"
      },
      {
        "_path": "lib/python3.7/site-packages/jinja2/__pycache__/nativetypes.cpython-37.pyc",
        "path_type": "pyc_file"
      },
      {
        "_path": "lib/python3.7/site-packages/jinja2/__pycache__/nodes.cpython-37.pyc",
        "path_type": "pyc_file"
      },
      {
        "_path": "lib/python3.7/site-packages/jinja2/__pycache__/optimizer.cpython-37.pyc",
        "path_type": "pyc_file"
      },
      {
        "_path": "lib/python3.7/site-packages/jinja2/__pycache__/parser.cpython-37.pyc",
        "path_type": "pyc_file"
      },
      {
        "_path": "lib/python3.7/site-packages/jinja2/__pycache__/runtime.cpython-37.pyc",
        "path_type": "pyc_file"
      },
      {
        "_path": "lib/python3.7/site-packages/jinja2/__pycache__/sandbox.cpython-37.pyc",
        "path_type": "pyc_file"
      },
      {
        "_path": "lib/python3.7/site-packages/jinja2/__pycache__/tests.cpython-37.pyc",
        "path_type": "pyc_file"
      },
      {
        "_path": "lib/python3.7/site-packages/jinja2/__pycache__/utils.cpython-37.pyc",
        "path_type": "pyc_file"
      },
      {
        "_path": "lib/python3.7/site-packages/jinja2/__pycache__/visitor.cpython-37.pyc",
        "path_type": "pyc_file"
      }
    ],
    "paths_version": 1
  },
  "requested_spec": "None",
  "size": 96029,
  "subdir": "noarch",
  "timestamp": 1612213176846,
  "track_features": "",
  "url": "https://repo.anaconda.com/pkgs/main/noarch/jinja2-2.11.3-pyhd3eb1b0_0.tar.bz2",
  "version": "2.11.3"
}