{
  "arch": "x86_64",
  "build": "h173b8e3_0",
  "build_number": 0,
  "channel": "https://repo.anaconda.com/pkgs/main/linux-64",
  "constrains": [],
  "depends": [
    "libedit >=3.1.20191231,<3.2.0a0",
    "libedit >=3.1.20191231,<4.0a0",
    "libgcc-ng >=7.3.0",
    "openssl >=1.1.1g,<1.1.2a"
  ],
  "extracted_package_dir": "/home/ec2-user/anaconda3/pkgs/krb5-1.18.2-h173b8e3_0",
  "features": "",
  "files": [
    "bin/compile_et",
    "bin/gss-client",
    "bin/k5srvutil",
    "bin/kadmin",
    "bin/kdestroy",
    "bin/kinit",
    "bin/klist",
    "bin/kpasswd",
    "bin/krb5-config",
    "bin/ksu",
    "bin/kswitch",
    "bin/ktutil",
    "bin/kvno",
    "bin/sclient",
    "bin/sim_client",
    "bin/uuclient",
    "include/com_err.h",
    "include/gssapi.h",
    "include/gssapi/gssapi.h",
    "include/gssapi/gssapi_alloc.h",
    "include/gssapi/gssapi_ext.h",
    "include/gssapi/gssapi_generic.h",
    "include/gssapi/gssapi_krb5.h",
    "include/gssapi/mechglue.h",
    "include/gssrpc/auth.h",
    "include/gssrpc/auth_gss.h",
    "include/gssrpc/auth_gssapi.h",
    "include/gssrpc/auth_unix.h",
    "include/gssrpc/clnt.h",
    "include/gssrpc/netdb.h",
    "include/gssrpc/pmap_clnt.h",
    "include/gssrpc/pmap_prot.h",
    "include/gssrpc/pmap_rmt.h",
    "include/gssrpc/rename.h",
    "include/gssrpc/rpc.h",
    "include/gssrpc/rpc_msg.h",
    "include/gssrpc/svc.h",
    "include/gssrpc/svc_auth.h",
    "include/gssrpc/types.h",
    "include/gssrpc/xdr.h",
    "include/kadm5/admin.h",
    "include/kadm5/chpass_util_strings.h",
    "include/kadm5/kadm_err.h",
    "include/kdb.h",
    "include/krad.h",
    "include/krb5.h",
    "include/krb5/ccselect_plugin.h",
    "include/krb5/certauth_plugin.h",
    "include/krb5/clpreauth_plugin.h",
    "include/krb5/hostrealm_plugin.h",
    "include/krb5/kadm5_auth_plugin.h",
    "include/krb5/kadm5_hook_plugin.h",
    "include/krb5/kdcpolicy_plugin.h",
    "include/krb5/kdcpreauth_plugin.h",
    "include/krb5/krb5.h",
    "include/krb5/localauth_plugin.h",
    "include/krb5/locate_plugin.h",
    "include/krb5/plugin.h",
    "include/krb5/preauth_plugin.h",
    "include/krb5/pwqual_plugin.h",
    "include/profile.h",
    "include/verto-module.h",
    "include/verto.h",
    "lib/krb5/plugins/kdb/db2.so",
    "lib/krb5/plugins/preauth/otp.so",
    "lib/krb5/plugins/preauth/pkinit.so",
    "lib/krb5/plugins/preauth/spake.so",
    "lib/krb5/plugins/preauth/test.so",
    "lib/krb5/plugins/tls/k5tls.so",
    "lib/libcom_err.so",
    "lib/libcom_err.so.3",
    "lib/libcom_err.so.3.0",
    "lib/libgssapi_krb5.so",
    "lib/libgssapi_krb5.so.2",
    "lib/libgssapi_krb5.so.2.2",
    "lib/libgssrpc.so",
    "lib/libgssrpc.so.4",
    "lib/libgssrpc.so.4.2",
    "lib/libk5crypto.so",
    "lib/libk5crypto.so.3",
    "lib/libk5crypto.so.3.1",
    "lib/libkadm5clnt.so",
    "lib/libkadm5clnt_mit.so",
    "lib/libkadm5clnt_mit.so.12",
    "lib/libkadm5clnt_mit.so.12.0",
    "lib/libkadm5srv.so",
    "lib/libkadm5srv_mit.so",
    "lib/libkadm5srv_mit.so.12",
    "lib/libkadm5srv_mit.so.12.0",
    "lib/libkdb5.so",
    "lib/libkdb5.so.10",
    "lib/libkdb5.so.10.0",
    "lib/libkrad.so",
    "lib/libkrad.so.0",
    "lib/libkrad.so.0.0",
    "lib/libkrb5.so",
    "lib/libkrb5.so.3",
    "lib/libkrb5.so.3.3",
    "lib/libkrb5support.so",
    "lib/libkrb5support.so.0",
    "lib/libkrb5support.so.0.1",
    "lib/libverto.so",
    "lib/libverto.so.0",
    "lib/libverto.so.0.0",
    "lib/pkgconfig/gssrpc.pc",
    "lib/pkgconfig/kadm-client.pc",
    "lib/pkgconfig/kadm-server.pc",
    "lib/pkgconfig/kdb.pc",
    "lib/pkgconfig/krb5-gssapi.pc",
    "lib/pkgconfig/krb5.pc",
    "lib/pkgconfig/mit-krb5-gssapi.pc",
    "lib/pkgconfig/mit-krb5.pc",
    "sbin/gss-server",
    "sbin/kadmin.local",
    "sbin/kadmind",
    "sbin/kdb5_util",
    "sbin/kprop",
    "sbin/kpropd",
    "sbin/kproplog",
    "sbin/krb5-send-pr",
    "sbin/krb5kdc",
    "sbin/sim_server",
    "sbin/sserver",
    "sbin/uuserver",
    "share/et/et_c.awk",
    "share/et/et_h.awk",
    "share/examples/krb5/kdc.conf",
    "share/examples/krb5/krb5.conf",
    "share/examples/krb5/services.append",
    "share/locale/de/LC_MESSAGES/mit-krb5.mo",
    "share/locale/en_US/LC_MESSAGES/mit-krb5.mo",
    "share/man/man1/compile_et.1",
    "share/man/man1/k5srvutil.1",
    "share/man/man1/kadmin.1",
    "share/man/man1/kdestroy.1",
    "share/man/man1/kinit.1",
    "share/man/man1/klist.1",
    "share/man/man1/kpasswd.1",
    "share/man/man1/krb5-config.1",
    "share/man/man1/ksu.1",
    "share/man/man1/kswitch.1",
    "share/man/man1/ktutil.1",
    "share/man/man1/kvno.1",
    "share/man/man1/sclient.1",
    "share/man/man5/.k5identity.5",
    "share/man/man5/.k5login.5",
    "share/man/man5/k5identity.5",
    "share/man/man5/k5login.5",
    "share/man/man5/kadm5.acl.5",
    "share/man/man5/kdc.conf.5",
    "share/man/man5/krb5.conf.5",
    "share/man/man7/kerberos.7",
    "share/man/man8/kadmin.local.8",
    "share/man/man8/kadmind.8",
    "share/man/man8/kdb5_ldap_util.8",
    "share/man/man8/kdb5_util.8",
    "share/man/man8/kprop.8",
    "share/man/man8/kpropd.8",
    "share/man/man8/kproplog.8",
    "share/man/man8/krb5kdc.8",
    "share/man/man8/sserver.8"
  ],
  "fn": "krb5-1.18.2-h173b8e3_0.tar.bz2",
  "license": "MIT",
  "link": {
    "source": "/home/ec2-user/anaconda3/pkgs/krb5-1.18.2-h173b8e3_0",
    "type": 1
  },
  "md5": "48775aa9100c66a72154b335d725c2e6",
  "name": "krb5",
  "package_tarball_full_path": "/home/ec2-user/anaconda3/pkgs/krb5-1.18.2-h173b8e3_0.tar.bz2",
  "paths_data": {
    "paths": [
      {
        "_path": "bin/compile_et",
        "file_mode": "text",
        "path_type": "hardlink",
        "prefix_placeholder": "/opt/anaconda1anaconda2anaconda3",
        "sha256": "e93884bdaad5a2dc2d7cbd58d8b5463172b9f1ff44149e55b2c521e62ab40f2b",
        "sha256_in_prefix": "4cece5cd60e00fb651a8e653986158c96fec5d765877aea90295697fb50cdf6b",
        "size_in_bytes": 846
      },
      {
        "_path": "bin/gss-client",
        "path_type": "hardlink",
        "sha256": "670111bc67ef412185ba8058460d549ebc07e0b59c02db6db840c64849d0e7e9",
        "sha256_in_prefix": "670111bc67ef412185ba8058460d549ebc07e0b59c02db6db840c64849d0e7e9",
        "size_in_bytes": 35768
      },
      {
        "_path": "bin/k5srvutil",
        "path_type": "hardlink",
        "sha256": "d44b92e0c847223da03e6eecfcb0aafb02eb87e7bbbb4db60d31ccfb088d0f7b",
        "sha256_in_prefix": "d44b92e0c847223da03e6eecfcb0aafb02eb87e7bbbb4db60d31ccfb088d0f7b",
        "size_in_bytes": 2004
      },
      {
        "_path": "bin/kadmin",
        "path_type": "hardlink",
        "sha256": "8ae6dc8714044a194de0f3560641c65270f625ef6e9e3ae71d14217ee7ae4c67",
        "sha256_in_prefix": "8ae6dc8714044a194de0f3560641c65270f625ef6e9e3ae71d14217ee7ae4c67",
        "size_in_bytes": 107184
      },
      {
        "_path": "bin/kdestroy",
        "path_type": "hardlink",
        "sha256": "ef16e9c351f819a27fd99516ff45eac355c66cfad91383ff76ab1e8896fb6c3a",
        "sha256_in_prefix": "ef16e9c351f819a27fd99516ff45eac355c66cfad91383ff76ab1e8896fb6c3a",
        "size_in_bytes": 20944
      },
      {
        "_path": "bin/kinit",
        "path_type": "hardlink",
        "sha256": "0aaa9b00ed6d2e38d35745db8a53bfa6baabfe8ad8e1c27ce8b9ee8f9ccc9cc5",
        "sha256_in_prefix": "0aaa9b00ed6d2e38d35745db8a53bfa6baabfe8ad8e1c27ce8b9ee8f9ccc9cc5",
        "size_in_bytes": 45104
      },
      {
        "_path": "bin/klist",
        "path_type": "hardlink",
        "sha256": "e2e5608c1fadd932cee25809fc37145ebeaba7fa91b7d5041bc6285c2f785c03",
        "sha256_in_prefix": "e2e5608c1fadd932cee25809fc37145ebeaba7fa91b7d5041bc6285c2f785c03",
        "size_in_bytes": 40344
      },
      {
        "_path": "bin/kpasswd",
        "path_type": "hardlink",
        "sha256": "571e660480a94cd2c2cf3e72578c8658394e04c2c3f59983ea2ade195c015a34",
        "sha256_in_prefix": "571e660480a94cd2c2cf3e72578c8658394e04c2c3f59983ea2ade195c015a34",
        "size_in_bytes": 25352
      },
      {
        "_path": "bin/krb5-config",
        "file_mode": "text",
        "path_type": "hardlink",
        "prefix_placeholder": "/opt/anaconda1anaconda2anaconda3",
        "sha256": "961df4b27b42737d6610cb9fa07e85e6ba97c595b79fc40a614ab6596b0cbcc0",
        "sha256_in_prefix": "c85561f12c3856cbf63671877264973d84142ee0479e8e5190f383995a6bfe27",
        "size_in_bytes": 7132
      },
      {
        "_path": "bin/ksu",
        "path_type": "hardlink",
        "sha256": "c0a9bb5bb7be869352cac7454251e7c69b6e518897b5ab3fa7713f8a94505910",
        "sha256_in_prefix": "c0a9bb5bb7be869352cac7454251e7c69b6e518897b5ab3fa7713f8a94505910",
        "size_in_bytes": 69240
      },
      {
        "_path": "bin/kswitch",
        "path_type": "hardlink",
        "sha256": "630a1b67783f89cded477a989b3492760c6d46da41beea7ab56bc0c6ab7e746e",
        "sha256_in_prefix": "630a1b67783f89cded477a989b3492760c6d46da41beea7ab56bc0c6ab7e746e",
        "size_in_bytes": 20600
      },
      {
        "_path": "bin/ktutil",
        "path_type": "hardlink",
        "sha256": "1f0d72788b5ff08f0baac0be29582dbb1ebaabb39ed2d1b5122df7cf3c8210ee",
        "sha256_in_prefix": "1f0d72788b5ff08f0baac0be29582dbb1ebaabb39ed2d1b5122df7cf3c8210ee",
        "size_in_bytes": 46432
      },
      {
        "_path": "bin/kvno",
        "path_type": "hardlink",
        "sha256": "1b5226c7496d7d5739272403d62dc027247befdb1c68c5e893d569335e440b15",
        "sha256_in_prefix": "1b5226c7496d7d5739272403d62dc027247befdb1c68c5e893d569335e440b15",
        "size_in_bytes": 31016
      },
      {
        "_path": "bin/sclient",
        "path_type": "hardlink",
        "sha256": "94eb1547514b311996d5d076b868fed9bcf47e9f29f8dda6a8cb7fb175c5d580",
        "sha256_in_prefix": "94eb1547514b311996d5d076b868fed9bcf47e9f29f8dda6a8cb7fb175c5d580",
        "size_in_bytes": 25384
      },
      {
        "_path": "bin/sim_client",
        "path_type": "hardlink",
        "sha256": "9d39af722b16f224bd457f273ac7ffb6e96bde757ed87e59b572f4676cde4f2e",
        "sha256_in_prefix": "9d39af722b16f224bd457f273ac7ffb6e96bde757ed87e59b572f4676cde4f2e",
        "size_in_bytes": 21192
      },
      {
        "_path": "bin/uuclient",
        "path_type": "hardlink",
        "sha256": "8ac390579785b92c4c79a99325bbde2f44fe77a4c38f48e5e4cc560d4e4b2854",
        "sha256_in_prefix": "8ac390579785b92c4c79a99325bbde2f44fe77a4c38f48e5e4cc560d4e4b2854",
        "size_in_bytes": 25888
      },
      {
        "_path": "include/com_err.h",
        "path_type": "hardlink",
        "sha256": "7e7b77b8d2911e8caafa45c6186c4b6f894d565550c19ba262747834c3c6909a",
        "sha256_in_prefix": "7e7b77b8d2911e8caafa45c6186c4b6f894d565550c19ba262747834c3c6909a",
        "size_in_bytes": 1979
      },
      {
        "_path": "include/gssapi.h",
        "path_type": "hardlink",
        "sha256": "6fca7ce46733a4388a45a5816e4b5b2746d68ad3e04f9e2c51463f134cb802fa",
        "sha256_in_prefix": "6fca7ce46733a4388a45a5816e4b5b2746d68ad3e04f9e2c51463f134cb802fa",
        "size_in_bytes": 181
      },
      {
        "_path": "include/gssapi/gssapi.h",
        "path_type": "hardlink",
        "sha256": "93c9034041dc65206531709c8161e006cafae6d4b1e6506c56a23f2f03659bd4",
        "sha256_in_prefix": "93c9034041dc65206531709c8161e006cafae6d4b1e6506c56a23f2f03659bd4",
        "size_in_bytes": 29957
      },
      {
        "_path": "include/gssapi/gssapi_alloc.h",
        "path_type": "hardlink",
        "sha256": "59a93b8bdbc477e00144afa0cc3764821e65f9e226526e16a7511a8f0878980c",
        "sha256_in_prefix": "59a93b8bdbc477e00144afa0cc3764821e65f9e226526e16a7511a8f0878980c",
        "size_in_bytes": 2640
      },
      {
        "_path": "include/gssapi/gssapi_ext.h",
        "path_type": "hardlink",
        "sha256": "73a81c281ade6edcc9ea7763a4c7ec416614f0a07abfd93bdfae7e64cfc684c0",
        "sha256_in_prefix": "73a81c281ade6edcc9ea7763a4c7ec416614f0a07abfd93bdfae7e64cfc684c0",
        "size_in_bytes": 20859
      },
      {
        "_path": "include/gssapi/gssapi_generic.h",
        "path_type": "hardlink",
        "sha256": "b264115ba56603ceaad5e6ed5502dba2629959089391a4f18c4266c66befdc54",
        "sha256_in_prefix": "b264115ba56603ceaad5e6ed5502dba2629959089391a4f18c4266c66befdc54",
        "size_in_bytes": 2217
      },
      {
        "_path": "include/gssapi/gssapi_krb5.h",
        "path_type": "hardlink",
        "sha256": "26689e1990d213ad448f4ad8199bacdd06a9c7148d2ae953ebe701a1c45592a6",
        "sha256_in_prefix": "26689e1990d213ad448f4ad8199bacdd06a9c7148d2ae953ebe701a1c45592a6",
        "size_in_bytes": 11813
      },
      {
        "_path": "include/gssapi/mechglue.h",
        "path_type": "hardlink",
        "sha256": "abb62fd8d3c15ac357900a3f26b92e361e2601c1b921417fafd2b6802df4b1ed",
        "sha256_in_prefix": "abb62fd8d3c15ac357900a3f26b92e361e2601c1b921417fafd2b6802df4b1ed",
        "size_in_bytes": 1652
      },
      {
        "_path": "include/gssrpc/auth.h",
        "path_type": "hardlink",
        "sha256": "91a6e09d6b3d2553a69002b724a7871743e67d1e940829ca9aebbbb890151386",
        "sha256_in_prefix": "91a6e09d6b3d2553a69002b724a7871743e67d1e940829ca9aebbbb890151386",
        "size_in_bytes": 6472
      },
      {
        "_path": "include/gssrpc/auth_gss.h",
        "path_type": "hardlink",
        "sha256": "571caaca9ae5cf6cceec5cf7ff603571e818592c4220d62856ab624eeb25620a",
        "sha256_in_prefix": "571caaca9ae5cf6cceec5cf7ff603571e818592c4220d62856ab624eeb25620a",
        "size_in_bytes": 4840
      },
      {
        "_path": "include/gssrpc/auth_gssapi.h",
        "path_type": "hardlink",
        "sha256": "4da2548b519f82b39ec503866a0795a8db5bdffc8b7327cc04aa9c0445efe6d5",
        "sha256_in_prefix": "4da2548b519f82b39ec503866a0795a8db5bdffc8b7327cc04aa9c0445efe6d5",
        "size_in_bytes": 4333
      },
      {
        "_path": "include/gssrpc/auth_unix.h",
        "path_type": "hardlink",
        "sha256": "1e42fc6b44a644ca1bb5dd028f72af0e9c30848b4b469412347fdc16aecc9023",
        "sha256_in_prefix": "1e42fc6b44a644ca1bb5dd028f72af0e9c30848b4b469412347fdc16aecc9023",
        "size_in_bytes": 2896
      },
      {
        "_path": "include/gssrpc/clnt.h",
        "path_type": "hardlink",
        "sha256": "6e2a744f59cc18c2fb5e3dbbc3578b3c00166147ada546f5a78f0f3aef9541ab",
        "sha256_in_prefix": "6e2a744f59cc18c2fb5e3dbbc3578b3c00166147ada546f5a78f0f3aef9541ab",
        "size_in_bytes": 9652
      },
      {
        "_path": "include/gssrpc/netdb.h",
        "path_type": "hardlink",
        "sha256": "38f30d536012d5785645929e0d513378137d15476695a318b2c51db5ee7e0312",
        "sha256_in_prefix": "38f30d536012d5785645929e0d513378137d15476695a318b2c51db5ee7e0312",
        "size_in_bytes": 2442
      },
      {
        "_path": "include/gssrpc/pmap_clnt.h",
        "path_type": "hardlink",
        "sha256": "76a3d4c6f9d03a0d6fdf5dccbeeedfa60d4e59e7281dabfb403fa283670d578e",
        "sha256_in_prefix": "76a3d4c6f9d03a0d6fdf5dccbeeedfa60d4e59e7281dabfb403fa283670d578e",
        "size_in_bytes": 3429
      },
      {
        "_path": "include/gssrpc/pmap_prot.h",
        "path_type": "hardlink",
        "sha256": "4e60ca35f3f801c5ab8c25e327bcfc4637deac0615036d9ebe9bbca0242e74d2",
        "sha256_in_prefix": "4e60ca35f3f801c5ab8c25e327bcfc4637deac0615036d9ebe9bbca0242e74d2",
        "size_in_bytes": 3841
      },
      {
        "_path": "include/gssrpc/pmap_rmt.h",
        "path_type": "hardlink",
        "sha256": "105372661463f05652cb893535de7daa2f7cba2b107e14266c7ee6339077fe0f",
        "sha256_in_prefix": "105372661463f05652cb893535de7daa2f7cba2b107e14266c7ee6339077fe0f",
        "size_in_bytes": 2303
      },
      {
        "_path": "include/gssrpc/rename.h",
        "path_type": "hardlink",
        "sha256": "77a0699e6b4bfa3555b8b14d449a7dcc55f80e987c9479665dff6ef61e8a82de",
        "sha256_in_prefix": "77a0699e6b4bfa3555b8b14d449a7dcc55f80e987c9479665dff6ef61e8a82de",
        "size_in_bytes": 10264
      },
      {
        "_path": "include/gssrpc/rpc.h",
        "path_type": "hardlink",
        "sha256": "281063f97d45b39913e2f3f9149a36548e2fbe4bb60033e73b0bb61a440f7dff",
        "sha256_in_prefix": "281063f97d45b39913e2f3f9149a36548e2fbe4bb60033e73b0bb61a440f7dff",
        "size_in_bytes": 3143
      },
      {
        "_path": "include/gssrpc/rpc_msg.h",
        "path_type": "hardlink",
        "sha256": "3c3ee8d1960c4cf46f1fcb2247cdf4246a22990e901e7560158a74f4b1960ee6",
        "sha256_in_prefix": "3c3ee8d1960c4cf46f1fcb2247cdf4246a22990e901e7560158a74f4b1960ee6",
        "size_in_bytes": 5106
      },
      {
        "_path": "include/gssrpc/svc.h",
        "path_type": "hardlink",
        "sha256": "9bc81450c2105fe79955115c04c153d6523636b067d4c8aa30f7892ea4e2246b",
        "sha256_in_prefix": "9bc81450c2105fe79955115c04c153d6523636b067d4c8aa30f7892ea4e2246b",
        "size_in_bytes": 11595
      },
      {
        "_path": "include/gssrpc/svc_auth.h",
        "path_type": "hardlink",
        "sha256": "f21ba38af8239d3899a1ccb744daac2c06dcc16195a893f08ed0ce9750a12dfa",
        "sha256_in_prefix": "f21ba38af8239d3899a1ccb744daac2c06dcc16195a893f08ed0ce9750a12dfa",
        "size_in_bytes": 3976
      },
      {
        "_path": "include/gssrpc/types.h",
        "path_type": "hardlink",
        "sha256": "8de85d0b260ce40a1b4f335db0fcc069fbc369309a2a4e0ec821b180a2b6aba2",
        "sha256_in_prefix": "8de85d0b260ce40a1b4f335db0fcc069fbc369309a2a4e0ec821b180a2b6aba2",
        "size_in_bytes": 3626
      },
      {
        "_path": "include/gssrpc/xdr.h",
        "path_type": "hardlink",
        "sha256": "3992f5f3b0f201da298c793bb7aa5902e7d72951015605756bfa47a6ec9352db",
        "sha256_in_prefix": "3992f5f3b0f201da298c793bb7aa5902e7d72951015605756bfa47a6ec9352db",
        "size_in_bytes": 11779
      },
      {
        "_path": "include/kadm5/admin.h",
        "path_type": "hardlink",
        "sha256": "b461a44b339d72ef860e74b421f0edbafab21c6730e535e658fb6efaf4ca33cb",
        "sha256_in_prefix": "b461a44b339d72ef860e74b421f0edbafab21c6730e535e658fb6efaf4ca33cb",
        "size_in_bytes": 20575
      },
      {
        "_path": "include/kadm5/chpass_util_strings.h",
        "path_type": "hardlink",
        "sha256": "3b8a8166ab5b8862f92b7f97906c8f0e218937450888d95b15f27663fa774a1d",
        "sha256_in_prefix": "3b8a8166ab5b8862f92b7f97906c8f0e218937450888d95b15f27663fa774a1d",
        "size_in_bytes": 1572
      },
      {
        "_path": "include/kadm5/kadm_err.h",
        "path_type": "hardlink",
        "sha256": "f111fef80f84efadf82c3b455838da93983ae49146d6c30a4b97d3e243775ae5",
        "sha256_in_prefix": "f111fef80f84efadf82c3b455838da93983ae49146d6c30a4b97d3e243775ae5",
        "size_in_bytes": 4369
      },
      {
        "_path": "include/kdb.h",
        "path_type": "hardlink",
        "sha256": "315809ba19de235e536fad717c2866b95a78f726f36644f1090a82bcc847f81c",
        "sha256_in_prefix": "315809ba19de235e536fad717c2866b95a78f726f36644f1090a82bcc847f81c",
        "size_in_bytes": 69212
      },
      {
        "_path": "include/krad.h",
        "path_type": "hardlink",
        "sha256": "c16878d9b57669f68f2d55481bf963c32e7f3c659eda34d75f66b432536f90d6",
        "sha256_in_prefix": "c16878d9b57669f68f2d55481bf963c32e7f3c659eda34d75f66b432536f90d6",
        "size_in_bytes": 8933
      },
      {
        "_path": "include/krb5.h",
        "path_type": "hardlink",
        "sha256": "1fe239732636b4f9cbfd596542b77c5dd60af2d73a1d4df1eb30ba6ebcd9ec78",
        "sha256_in_prefix": "1fe239732636b4f9cbfd596542b77c5dd60af2d73a1d4df1eb30ba6ebcd9ec78",
        "size_in_bytes": 402
      },
      {
        "_path": "include/krb5/ccselect_plugin.h",
        "path_type": "hardlink",
        "sha256": "6eb76ad87680dee03796b0fa1d5fb3586a29668aaa8f71be2d7e4ba8a909c4b9",
        "sha256_in_prefix": "6eb76ad87680dee03796b0fa1d5fb3586a29668aaa8f71be2d7e4ba8a909c4b9",
        "size_in_bytes": 4213
      },
      {
        "_path": "include/krb5/certauth_plugin.h",
        "path_type": "hardlink",
        "sha256": "475cd45fee4aa33fdd1eb9bfe1a75cf50ba8b7cf391b331b55ea1239fc45ba36",
        "sha256_in_prefix": "475cd45fee4aa33fdd1eb9bfe1a75cf50ba8b7cf391b331b55ea1239fc45ba36",
        "size_in_bytes": 4964
      },
      {
        "_path": "include/krb5/clpreauth_plugin.h",
        "path_type": "hardlink",
        "sha256": "0a788d0a287b1676c5b4ea1962a2ca1e412a5e6d83a4b277803bc8f6d3b51230",
        "sha256_in_prefix": "0a788d0a287b1676c5b4ea1962a2ca1e412a5e6d83a4b277803bc8f6d3b51230",
        "size_in_bytes": 15523
      },
      {
        "_path": "include/krb5/hostrealm_plugin.h",
        "path_type": "hardlink",
        "sha256": "acd7ba4437c95d271e7c9cc19fd2097915b52576939c926a1f67837be0b99889",
        "sha256_in_prefix": "acd7ba4437c95d271e7c9cc19fd2097915b52576939c926a1f67837be0b99889",
        "size_in_bytes": 5460
      },
      {
        "_path": "include/krb5/kadm5_auth_plugin.h",
        "path_type": "hardlink",
        "sha256": "fca25eafd23fd91a86b80d5e1cef1b5d736787034385c6c235bfc5225304792c",
        "sha256_in_prefix": "fca25eafd23fd91a86b80d5e1cef1b5d736787034385c6c235bfc5225304792c",
        "size_in_bytes": 12482
      },
      {
        "_path": "include/krb5/kadm5_hook_plugin.h",
        "path_type": "hardlink",
        "sha256": "186d4520695bc55c894af072ae74472704d46b1359adf2e6103d52872b8a8019",
        "sha256_in_prefix": "186d4520695bc55c894af072ae74472704d46b1359adf2e6103d52872b8a8019",
        "size_in_bytes": 6161
      },
      {
        "_path": "include/krb5/kdcpolicy_plugin.h",
        "path_type": "hardlink",
        "sha256": "829dd07baf0d80cb1269d8e712612773f26609ef572b8df6297997c7f4f2b1f4",
        "sha256_in_prefix": "829dd07baf0d80cb1269d8e712612773f26609ef572b8df6297997c7f4f2b1f4",
        "size_in_bytes": 5320
      },
      {
        "_path": "include/krb5/kdcpreauth_plugin.h",
        "path_type": "hardlink",
        "sha256": "a955ce79a3fae8f102d59d8f5fdcdff396cf24d7d740e3df82141f8ae2e3c586",
        "sha256_in_prefix": "a955ce79a3fae8f102d59d8f5fdcdff396cf24d7d740e3df82141f8ae2e3c586",
        "size_in_bytes": 17530
      },
      {
        "_path": "include/krb5/krb5.h",
        "path_type": "hardlink",
        "sha256": "c5babee4863f6b061c6d1a0ffeb7a22ee4ad95ef40e05f5ec01f3eb75170d79e",
        "sha256_in_prefix": "c5babee4863f6b061c6d1a0ffeb7a22ee4ad95ef40e05f5ec01f3eb75170d79e",
        "size_in_bytes": 346349
      },
      {
        "_path": "include/krb5/localauth_plugin.h",
        "path_type": "hardlink",
        "sha256": "cdc4244abf61807bdfed95d1fe608cf925b4c4c3af4867ad6daced031c1cd8f3",
        "sha256_in_prefix": "cdc4244abf61807bdfed95d1fe608cf925b4c4c3af4867ad6daced031c1cd8f3",
        "size_in_bytes": 5881
      },
      {
        "_path": "include/krb5/locate_plugin.h",
        "path_type": "hardlink",
        "sha256": "333768c87d8a9f9e48ac4e92406f9e70b107d472dc2bef1a983966a97f68a9cf",
        "sha256_in_prefix": "333768c87d8a9f9e48ac4e92406f9e70b107d472dc2bef1a983966a97f68a9cf",
        "size_in_bytes": 2624
      },
      {
        "_path": "include/krb5/plugin.h",
        "path_type": "hardlink",
        "sha256": "5cdbdb19b61e841aa2fe593eb7a69ae1857728e04af15b3551a85c57d670c35d",
        "sha256_in_prefix": "5cdbdb19b61e841aa2fe593eb7a69ae1857728e04af15b3551a85c57d670c35d",
        "size_in_bytes": 2090
      },
      {
        "_path": "include/krb5/preauth_plugin.h",
        "path_type": "hardlink",
        "sha256": "ab64bd09cd8ebf5588e4445e5de75b8e9c411ef6035b0f4f04c8185df8abfbdf",
        "sha256_in_prefix": "ab64bd09cd8ebf5588e4445e5de75b8e9c411ef6035b0f4f04c8185df8abfbdf",
        "size_in_bytes": 1774
      },
      {
        "_path": "include/krb5/pwqual_plugin.h",
        "path_type": "hardlink",
        "sha256": "5f63d4365b584fd25dbfe565a6c37205ecdf34d6c565fe38b3e2834acae10b53",
        "sha256_in_prefix": "5f63d4365b584fd25dbfe565a6c37205ecdf34d6c565fe38b3e2834acae10b53",
        "size_in_bytes": 4426
      },
      {
        "_path": "include/profile.h",
        "path_type": "hardlink",
        "sha256": "adcc379f74cf3f758172d3521d31756e99bfb4749a2de00d345cfecea52e64c8",
        "sha256_in_prefix": "adcc379f74cf3f758172d3521d31756e99bfb4749a2de00d345cfecea52e64c8",
        "size_in_bytes": 12178
      },
      {
        "_path": "include/verto-module.h",
        "path_type": "hardlink",
        "sha256": "a0ca282f254efda89fae75a8d234d1b41a5f422422b5e37d2c56e863626557ca",
        "sha256_in_prefix": "a0ca282f254efda89fae75a8d234d1b41a5f422422b5e37d2c56e863626557ca",
        "size_in_bytes": 6640
      },
      {
        "_path": "include/verto.h",
        "path_type": "hardlink",
        "sha256": "65975020670bc6a59e96d4c42b4e66e60282696a11469ba85a3ae7bb42a5bc2d",
        "sha256_in_prefix": "65975020670bc6a59e96d4c42b4e66e60282696a11469ba85a3ae7bb42a5bc2d",
        "size_in_bytes": 19437
      },
      {
        "_path": "lib/krb5/plugins/kdb/db2.so",
        "file_mode": "binary",
        "path_type": "hardlink",
        "prefix_placeholder": "/tmp/build/80754af9/krb5_1593436429466/_h_env_placehold_placehold_placehold_placehold_placehold_placehold_placehold_placehold_placehold_placehold_placehold_placehold_placehold_placehold_placehold_placehold_placehold_placehold_placehold_placehold_placehold",
        "sha256": "7ddc016ce390940c01d1b543edc401c5a86ea9cf3a81d2b271a62f9e6c94050d",
        "sha256_in_prefix": "210e4ecf83f32b4cc562352b55d125e9912871b6145916c7297688829ea37dfd",
        "size_in_bytes": 110944
      },
      {
        "_path": "lib/krb5/plugins/preauth/otp.so",
        "file_mode": "binary",
        "path_type": "hardlink",
        "prefix_placeholder": "/tmp/build/80754af9/krb5_1593436429466/_h_env_placehold_placehold_placehold_placehold_placehold_placehold_placehold_placehold_placehold_placehold_placehold_placehold_placehold_placehold_placehold_placehold_placehold_placehold_placehold_placehold_placehold",
        "sha256": "1da9511d880d37a23595999ea11053484459891d8a7317ddab330cc2831cebec",
        "sha256_in_prefix": "d2efd16dd955f1c7c395c0426a62d7666d2cff9c7d7528aa9ced304fb0477c47",
        "size_in_bytes": 28464
      },
      {
        "_path": "lib/krb5/plugins/preauth/pkinit.so",
        "path_type": "hardlink",
        "sha256": "f2c7fb57846a169ed113b2f148bd4cb412fc1c015482b610a2b2be5845e4fe4c",
        "sha256_in_prefix": "f2c7fb57846a169ed113b2f148bd4cb412fc1c015482b610a2b2be5845e4fe4c",
        "size_in_bytes": 153688
      },
      {
        "_path": "lib/krb5/plugins/preauth/spake.so",
        "path_type": "hardlink",
        "sha256": "4457c27aa9d5ba28592caf328ee8c17b70472a6b3b3a7ec438748268f0478525",
        "sha256_in_prefix": "4457c27aa9d5ba28592caf328ee8c17b70472a6b3b3a7ec438748268f0478525",
        "size_in_bytes": 98536
      },
      {
        "_path": "lib/krb5/plugins/preauth/test.so",
        "path_type": "hardlink",
        "sha256": "be0a7a4b45531c5e4e797ed9f8294058fb4cd122485d803233e5d00cf32edccf",
        "sha256_in_prefix": "be0a7a4b45531c5e4e797ed9f8294058fb4cd122485d803233e5d00cf32edccf",
        "size_in_bytes": 21968
      },
      {
        "_path": "lib/krb5/plugins/tls/k5tls.so",
        "path_type": "hardlink",
        "sha256": "e243d2695d952585ed17b2295dd0a7e0062a8e36bab46ee01313f8537d160f65",
        "sha256_in_prefix": "e243d2695d952585ed17b2295dd0a7e0062a8e36bab46ee01313f8537d160f65",
        "size_in_bytes": 28984
      },
      {
        "_path": "lib/libcom_err.so",
        "path_type": "softlink",
        "sha256": "d6a89b04f053d88cc4c9d2a6a6ba7c1a7914aa028fffa579ad37f37610945363",
        "size_in_bytes": 23144
      },
      {
        "_path": "lib/libcom_err.so.3",
        "path_type": "softlink",
        "sha256": "d6a89b04f053d88cc4c9d2a6a6ba7c1a7914aa028fffa579ad37f37610945363",
        "size_in_bytes": 23144
      },
      {
        "_path": "lib/libcom_err.so.3.0",
        "path_type": "hardlink",
        "sha256": "d6a89b04f053d88cc4c9d2a6a6ba7c1a7914aa028fffa579ad37f37610945363",
        "sha256_in_prefix": "d6a89b04f053d88cc4c9d2a6a6ba7c1a7914aa028fffa579ad37f37610945363",
        "size_in_bytes": 23144
      },
      {
        "_path": "lib/libgssapi_krb5.so",
        "path_type": "softlink",
        "sha256": "08a863ccb70d283e1b03a11a59c4fde0570537aa22bb801842820e9644a507fb",
        "size_in_bytes": 390664
      },
      {
        "_path": "lib/libgssapi_krb5.so.2",
        "path_type": "softlink",
        "sha256": "08a863ccb70d283e1b03a11a59c4fde0570537aa22bb801842820e9644a507fb",
        "size_in_bytes": 390664
      },
      {
        "_path": "lib/libgssapi_krb5.so.2.2",
        "file_mode": "binary",
        "path_type": "hardlink",
        "prefix_placeholder": "/tmp/build/80754af9/krb5_1593436429466/_h_env_placehold_placehold_placehold_placehold_placehold_placehold_placehold_placehold_placehold_placehold_placehold_placehold_placehold_placehold_placehold_placehold_placehold_placehold_placehold_placehold_placehold",
        "sha256": "08a863ccb70d283e1b03a11a59c4fde0570537aa22bb801842820e9644a507fb",
        "sha256_in_prefix": "910c67ca60976509700368cdc73b8d07aa3f374be961dec707f8fc0b980b65c1",
        "size_in_bytes": 390664
      },
      {
        "_path": "lib/libgssrpc.so",
        "path_type": "softlink",
        "sha256": "c60d2c52ea8f32a22708b598285d17a687e2fbed0a91edcc5aa458ce4ddf174d",
        "size_in_bytes": 148416
      },
      {
        "_path": "lib/libgssrpc.so.4",
        "path_type": "softlink",
        "sha256": "c60d2c52ea8f32a22708b598285d17a687e2fbed0a91edcc5aa458ce4ddf174d",
        "size_in_bytes": 148416
      },
      {
        "_path": "lib/libgssrpc.so.4.2",
        "path_type": "hardlink",
        "sha256": "c60d2c52ea8f32a22708b598285d17a687e2fbed0a91edcc5aa458ce4ddf174d",
        "sha256_in_prefix": "c60d2c52ea8f32a22708b598285d17a687e2fbed0a91edcc5aa458ce4ddf174d",
        "size_in_bytes": 148416
      },
      {
        "_path": "lib/libk5crypto.so",
        "path_type": "softlink",
        "sha256": "6391dac305d8e015a88ad1451314c93cdcd882c79b393902b69a82098acaee39",
        "size_in_bytes": 114968
      },
      {
        "_path": "lib/libk5crypto.so.3",
        "path_type": "softlink",
        "sha256": "6391dac305d8e015a88ad1451314c93cdcd882c79b393902b69a82098acaee39",
        "size_in_bytes": 114968
      },
      {
        "_path": "lib/libk5crypto.so.3.1",
        "path_type": "hardlink",
        "sha256": "6391dac305d8e015a88ad1451314c93cdcd882c79b393902b69a82098acaee39",
        "sha256_in_prefix": "6391dac305d8e015a88ad1451314c93cdcd882c79b393902b69a82098acaee39",
        "size_in_bytes": 114968
      },
      {
        "_path": "lib/libkadm5clnt.so",
        "path_type": "softlink",
        "sha256": "a4c390f9682f63c7ecb8fe76b0c8b9801739cd8a7973675957417d3e576249b9",
        "size_in_bytes": 108696
      },
      {
        "_path": "lib/libkadm5clnt_mit.so",
        "path_type": "softlink",
        "sha256": "a4c390f9682f63c7ecb8fe76b0c8b9801739cd8a7973675957417d3e576249b9",
        "size_in_bytes": 108696
      },
      {
        "_path": "lib/libkadm5clnt_mit.so.12",
        "path_type": "softlink",
        "sha256": "a4c390f9682f63c7ecb8fe76b0c8b9801739cd8a7973675957417d3e576249b9",
        "size_in_bytes": 108696
      },
      {
        "_path": "lib/libkadm5clnt_mit.so.12.0",
        "file_mode": "binary",
        "path_type": "hardlink",
        "prefix_placeholder": "/tmp/build/80754af9/krb5_1593436429466/_h_env_placehold_placehold_placehold_placehold_placehold_placehold_placehold_placehold_placehold_placehold_placehold_placehold_placehold_placehold_placehold_placehold_placehold_placehold_placehold_placehold_placehold",
        "sha256": "a4c390f9682f63c7ecb8fe76b0c8b9801739cd8a7973675957417d3e576249b9",
        "sha256_in_prefix": "4a1adece7842e0d8a36790530054aa17509469fe14eb02e51d3118f0617e931e",
        "size_in_bytes": 108696
      },
      {
        "_path": "lib/libkadm5srv.so",
        "path_type": "softlink",
        "sha256": "13f9286b39360d272d36e4b82781508ab8a8bc8d7a4584893a4edb80600ed2fc",
        "size_in_bytes": 136592
      },
      {
        "_path": "lib/libkadm5srv_mit.so",
        "path_type": "softlink",
        "sha256": "13f9286b39360d272d36e4b82781508ab8a8bc8d7a4584893a4edb80600ed2fc",
        "size_in_bytes": 136592
      },
      {
        "_path": "lib/libkadm5srv_mit.so.12",
        "path_type": "softlink",
        "sha256": "13f9286b39360d272d36e4b82781508ab8a8bc8d7a4584893a4edb80600ed2fc",
        "size_in_bytes": 136592
      },
      {
        "_path": "lib/libkadm5srv_mit.so.12.0",
        "file_mode": "binary",
        "path_type": "hardlink",
        "prefix_placeholder": "/tmp/build/80754af9/krb5_1593436429466/_h_env_placehold_placehold_placehold_placehold_placehold_placehold_placehold_placehold_placehold_placehold_placehold_placehold_placehold_placehold_placehold_placehold_placehold_placehold_placehold_placehold_placehold",
        "sha256": "13f9286b39360d272d36e4b82781508ab8a8bc8d7a4584893a4edb80600ed2fc",
        "sha256_in_prefix": "ca6847d7c1931cce2c7ceb23a230260aa004ee9dc10e0f4e38648264b298c70f",
        "size_in_bytes": 136592
      },
      {
        "_path": "lib/libkdb5.so",
        "path_type": "softlink",
        "sha256": "4e3f96dcd4a255bd77ce345fbca116b3ba2b8facf6d81cbb68e0d2d1a67025b6",
        "size_in_bytes": 95584
      },
      {
        "_path": "lib/libkdb5.so.10",
        "path_type": "softlink",
        "sha256": "4e3f96dcd4a255bd77ce345fbca116b3ba2b8facf6d81cbb68e0d2d1a67025b6",
        "size_in_bytes": 95584
      },
      {
        "_path": "lib/libkdb5.so.10.0",
        "file_mode": "binary",
        "path_type": "hardlink",
        "prefix_placeholder": "/tmp/build/80754af9/krb5_1593436429466/_h_env_placehold_placehold_placehold_placehold_placehold_placehold_placehold_placehold_placehold_placehold_placehold_placehold_placehold_placehold_placehold_placehold_placehold_placehold_placehold_placehold_placehold",
        "sha256": "4e3f96dcd4a255bd77ce345fbca116b3ba2b8facf6d81cbb68e0d2d1a67025b6",
        "sha256_in_prefix": "b5fe6dbc8095fedaaef87cbea9f1ec614e080741e71014a63746340881b29006",
        "size_in_bytes": 95584
      },
      {
        "_path": "lib/libkrad.so",
        "path_type": "softlink",
        "sha256": "03626abad809479dc87e9f2070a1a5862e2a0a6245859b2c30cd825acdc67eae",
        "size_in_bytes": 44736
      },
      {
        "_path": "lib/libkrad.so.0",
        "path_type": "softlink",
        "sha256": "03626abad809479dc87e9f2070a1a5862e2a0a6245859b2c30cd825acdc67eae",
        "size_in_bytes": 44736
      },
      {
        "_path": "lib/libkrad.so.0.0",
        "path_type": "hardlink",
        "sha256": "03626abad809479dc87e9f2070a1a5862e2a0a6245859b2c30cd825acdc67eae",
        "sha256_in_prefix": "03626abad809479dc87e9f2070a1a5862e2a0a6245859b2c30cd825acdc67eae",
        "size_in_bytes": 44736
      },
      {
        "_path": "lib/libkrb5.so",
        "path_type": "softlink",
        "sha256": "26c88ebe057e20b32d4d43e555d180e4ed69f924911faa36e571fe1c0bd37bc6",
        "size_in_bytes": 1044960
      },
      {
        "_path": "lib/libkrb5.so.3",
        "path_type": "softlink",
        "sha256": "26c88ebe057e20b32d4d43e555d180e4ed69f924911faa36e571fe1c0bd37bc6",
        "size_in_bytes": 1044960
      },
      {
        "_path": "lib/libkrb5.so.3.3",
        "file_mode": "binary",
        "path_type": "hardlink",
        "prefix_placeholder": "/tmp/build/80754af9/krb5_1593436429466/_h_env_placehold_placehold_placehold_placehold_placehold_placehold_placehold_placehold_placehold_placehold_placehold_placehold_placehold_placehold_placehold_placehold_placehold_placehold_placehold_placehold_placehold",
        "sha256": "26c88ebe057e20b32d4d43e555d180e4ed69f924911faa36e571fe1c0bd37bc6",
        "sha256_in_prefix": "73917ae5bb37f9202cd5418c434ff4d9c3c063c91a1cd2dc20ac2027745ba002",
        "size_in_bytes": 1044960
      },
      {
        "_path": "lib/libkrb5support.so",
        "path_type": "softlink",
        "sha256": "e8634163c917c15cd1d5de9cf131c8bba1d5970b0ba983898b4fdace1a457fad",
        "size_in_bytes": 68112
      },
      {
        "_path": "lib/libkrb5support.so.0",
        "path_type": "softlink",
        "sha256": "e8634163c917c15cd1d5de9cf131c8bba1d5970b0ba983898b4fdace1a457fad",
        "size_in_bytes": 68112
      },
      {
        "_path": "lib/libkrb5support.so.0.1",
        "path_type": "hardlink",
        "sha256": "e8634163c917c15cd1d5de9cf131c8bba1d5970b0ba983898b4fdace1a457fad",
        "sha256_in_prefix": "e8634163c917c15cd1d5de9cf131c8bba1d5970b0ba983898b4fdace1a457fad",
        "size_in_bytes": 68112
      },
      {
        "_path": "lib/libverto.so",
        "path_type": "softlink",
        "sha256": "5fa8958244e0051572f7d99039a71c5ba63e6205edcd5e6c6973bcf945f36796",
        "size_in_bytes": 47064
      },
      {
        "_path": "lib/libverto.so.0",
        "path_type": "softlink",
        "sha256": "5fa8958244e0051572f7d99039a71c5ba63e6205edcd5e6c6973bcf945f36796",
        "size_in_bytes": 47064
      },
      {
        "_path": "lib/libverto.so.0.0",
        "path_type": "hardlink",
        "sha256": "5fa8958244e0051572f7d99039a71c5ba63e6205edcd5e6c6973bcf945f36796",
        "sha256_in_prefix": "5fa8958244e0051572f7d99039a71c5ba63e6205edcd5e6c6973bcf945f36796",
        "size_in_bytes": 47064
      },
      {
        "_path": "lib/pkgconfig/gssrpc.pc",
        "file_mode": "text",
        "path_type": "hardlink",
        "prefix_placeholder": "/opt/anaconda1anaconda2anaconda3",
        "sha256": "2569ac9370b364504e06c6b3abc1d282004bba7a818c9345e67fb10f9525a094",
        "sha256_in_prefix": "273e22703f446c02aa4f26cdb3693a17fcde6c2cf435b58df79883e980013a8f",
        "size_in_bytes": 282
      },
      {
        "_path": "lib/pkgconfig/kadm-client.pc",
        "file_mode": "text",
        "path_type": "hardlink",
        "prefix_placeholder": "/opt/anaconda1anaconda2anaconda3",
        "sha256": "097dec2b3ee8d096a2f06163776799ef55a4a671eda7fdf7550f0a0d4f05d66d",
        "sha256_in_prefix": "5b3f98b9d77e0a336a616b794ae4522bcb3bb280b951feefb61919cc17279233",
        "size_in_bytes": 303
      },
      {
        "_path": "lib/pkgconfig/kadm-server.pc",
        "file_mode": "text",
        "path_type": "hardlink",
        "prefix_placeholder": "/opt/anaconda1anaconda2anaconda3",
        "sha256": "3811205a859aa5e9add376e9a3234f30f0e0dab37ca392f551e4b7061230c73e",
        "sha256_in_prefix": "f6121ed0662b85bda00cbfbe016b0d5a532595642b549d93b57bd8ec2dec1193",
        "size_in_bytes": 299
      },
      {
        "_path": "lib/pkgconfig/kdb.pc",
        "file_mode": "text",
        "path_type": "hardlink",
        "prefix_placeholder": "/opt/anaconda1anaconda2anaconda3",
        "sha256": "dfaffc8d261232c70d7d3ac32fbe62d2821272832d0161e5459d215c3847359e",
        "sha256_in_prefix": "02ad9e9aecaeb8a0a1c927be5f7c4b16e09b9320787a3a6430b6d1f13dec96da",
        "size_in_bytes": 334
      },
      {
        "_path": "lib/pkgconfig/krb5-gssapi.pc",
        "file_mode": "text",
        "path_type": "hardlink",
        "prefix_placeholder": "/opt/anaconda1anaconda2anaconda3",
        "sha256": "428ee29e84ffac0aeda251dfbe3f04f0d6bf73c1858562eb42554c5856816eba",
        "sha256_in_prefix": "6c857b64a089e4778fdaf051a0d775a87ac194d2add0491b87cd08bdf316115b",
        "size_in_bytes": 240
      },
      {
        "_path": "lib/pkgconfig/krb5.pc",
        "file_mode": "text",
        "path_type": "hardlink",
        "prefix_placeholder": "/opt/anaconda1anaconda2anaconda3",
        "sha256": "38872a94c3a82edd88019ccf64b4074ce12bab1fba56e38755675dfe8ffb54bd",
        "sha256_in_prefix": "72a947ddd3116042e4667d7c372359360afadfebd483b5144d532c8043bb2d99",
        "size_in_bytes": 371
      },
      {
        "_path": "lib/pkgconfig/mit-krb5-gssapi.pc",
        "file_mode": "text",
        "path_type": "hardlink",
        "prefix_placeholder": "/opt/anaconda1anaconda2anaconda3",
        "sha256": "23c5f0e626b5a7bfc1aefd86eaf83a464fe3713149f9f9fce95bebf87cec77e4",
        "sha256_in_prefix": "09697ecac635614874d68c5ee58789c22f2846b4a86bef11feec4c97fcb32392",
        "size_in_bytes": 290
      },
      {
        "_path": "lib/pkgconfig/mit-krb5.pc",
        "file_mode": "text",
        "path_type": "hardlink",
        "prefix_placeholder": "/opt/anaconda1anaconda2anaconda3",
        "sha256": "527b5fbed86a5aed4d09131da23eaef2ed225fb80502d6877aba7b814f696249",
        "sha256_in_prefix": "e2646b8b1c5bed4623dae2adea4a411c8525bc3678981ffa451e8b382e49f857",
        "size_in_bytes": 443
      },
      {
        "_path": "sbin/gss-server",
        "path_type": "hardlink",
        "sha256": "ae849f4924cc078570b9d8c3559ebd64e27b65bb2d9b100b2f88fc310622faa7",
        "sha256_in_prefix": "ae849f4924cc078570b9d8c3559ebd64e27b65bb2d9b100b2f88fc310622faa7",
        "size_in_bytes": 31216
      },
      {
        "_path": "sbin/kadmin.local",
        "path_type": "hardlink",
        "sha256": "885de3ac2be533ab8c0f7dbb2e8b9e16292c5f4d7deae1c5d7c1ed1d29d3c0b2",
        "sha256_in_prefix": "885de3ac2be533ab8c0f7dbb2e8b9e16292c5f4d7deae1c5d7c1ed1d29d3c0b2",
        "size_in_bytes": 107144
      },
      {
        "_path": "sbin/kadmind",
        "file_mode": "binary",
        "path_type": "hardlink",
        "prefix_placeholder": "/tmp/build/80754af9/krb5_1593436429466/_h_env_placehold_placehold_placehold_placehold_placehold_placehold_placehold_placehold_placehold_placehold_placehold_placehold_placehold_placehold_placehold_placehold_placehold_placehold_placehold_placehold_placehold",
        "sha256": "9f906f657e3af30e07044a91e52d16c07a1d35cd6cffc07f72bcd57102677e30",
        "sha256_in_prefix": "a94be542708f0b72c30433902c4908a92ae15c8f495c7e281f8e944ce3829231",
        "size_in_bytes": 138080
      },
      {
        "_path": "sbin/kdb5_util",
        "path_type": "hardlink",
        "sha256": "cecbbed74a6e49bbc784a9a9561f18c257a7d7fc4e91cb5e441168c78797000e",
        "sha256_in_prefix": "cecbbed74a6e49bbc784a9a9561f18c257a7d7fc4e91cb5e441168c78797000e",
        "size_in_bytes": 117824
      },
      {
        "_path": "sbin/kprop",
        "file_mode": "binary",
        "path_type": "hardlink",
        "prefix_placeholder": "/tmp/build/80754af9/krb5_1593436429466/_h_env_placehold_placehold_placehold_placehold_placehold_placehold_placehold_placehold_placehold_placehold_placehold_placehold_placehold_placehold_placehold_placehold_placehold_placehold_placehold_placehold_placehold",
        "sha256": "d694cc75134644611ac5c4ab838590c1fdf0b057d94437ac1dcb7f1fc420d405",
        "sha256_in_prefix": "fbcec73f56088586dbe23c1565812a8f3a2580e7b810e0a94fef900aedffc569",
        "size_in_bytes": 31856
      },
      {
        "_path": "sbin/kpropd",
        "file_mode": "binary",
        "path_type": "hardlink",
        "prefix_placeholder": "/tmp/build/80754af9/krb5_1593436429466/_h_env_placehold_placehold_placehold_placehold_placehold_placehold_placehold_placehold_placehold_placehold_placehold_placehold_placehold_placehold_placehold_placehold_placehold_placehold_placehold_placehold_placehold",
        "sha256": "8b3367f2f5fb0cec719b4db8e7ed7e97dd5b34d0ed4a279eb10ed4fdcf2d90e8",
        "sha256_in_prefix": "b0b47158accb01c74f8adce66c6027c9c0a35262dd1c7002e6bf8ed307baff28",
        "size_in_bytes": 57752
      },
      {
        "_path": "sbin/kproplog",
        "path_type": "hardlink",
        "sha256": "f0719c34c16713505281d6e299e957497d81de3b7ab6e95310764891583e8898",
        "sha256_in_prefix": "f0719c34c16713505281d6e299e957497d81de3b7ab6e95310764891583e8898",
        "size_in_bytes": 29784
      },
      {
        "_path": "sbin/krb5-send-pr",
        "path_type": "hardlink",
        "sha256": "b2f471f0c9c664989814fee1a3e928814a26fad235c985257228b32512f8a148",
        "sha256_in_prefix": "b2f471f0c9c664989814fee1a3e928814a26fad235c985257228b32512f8a148",
        "size_in_bytes": 347
      },
      {
        "_path": "sbin/krb5kdc",
        "file_mode": "binary",
        "path_type": "hardlink",
        "prefix_placeholder": "/tmp/build/80754af9/krb5_1593436429466/_h_env_placehold_placehold_placehold_placehold_placehold_placehold_placehold_placehold_placehold_placehold_placehold_placehold_placehold_placehold_placehold_placehold_placehold_placehold_placehold_placehold_placehold",
        "sha256": "4d84ee6ae54b9885e34236cce6de2004325c5a6442c9ec8c182b97426f584dcb",
        "sha256_in_prefix": "70e8b0940e13eb5356c182194903b6df1177c95b4efa53c578a189d9698e15d2",
        "size_in_bytes": 186408
      },
      {
        "_path": "sbin/sim_server",
        "path_type": "hardlink",
        "sha256": "fac15c8b4a29fcd3c39fa2dc69bd750b5647c87e20d27a1d38ac2dd0a831f1cb",
        "sha256_in_prefix": "fac15c8b4a29fcd3c39fa2dc69bd750b5647c87e20d27a1d38ac2dd0a831f1cb",
        "size_in_bytes": 21016
      },
      {
        "_path": "sbin/sserver",
        "path_type": "hardlink",
        "sha256": "06e220bc80fcd555459e96caf62daff645877af13acdabc746627bc66ff107c6",
        "sha256_in_prefix": "06e220bc80fcd555459e96caf62daff645877af13acdabc746627bc66ff107c6",
        "size_in_bytes": 25360
      },
      {
        "_path": "sbin/uuserver",
        "path_type": "hardlink",
        "sha256": "d658472a3bed05f2b1625dc9794c40da2e29dd26b7a70914105bf181e6736200",
        "sha256_in_prefix": "d658472a3bed05f2b1625dc9794c40da2e29dd26b7a70914105bf181e6736200",
        "size_in_bytes": 25584
      },
      {
        "_path": "share/et/et_c.awk",
        "path_type": "hardlink",
        "sha256": "2187fea4d5d68f2341e44040e3bafb83a52aa3b7697fd1ec13ddcc57b565d274",
        "sha256_in_prefix": "2187fea4d5d68f2341e44040e3bafb83a52aa3b7697fd1ec13ddcc57b565d274",
        "size_in_bytes": 5212
      },
      {
        "_path": "share/et/et_h.awk",
        "path_type": "hardlink",
        "sha256": "2a3b200cf0f767df8a1c595cbdb3a9151dfd682bf27443590074c984ca38944e",
        "sha256_in_prefix": "2a3b200cf0f767df8a1c595cbdb3a9151dfd682bf27443590074c984ca38944e",
        "size_in_bytes": 3918
      },
      {
        "_path": "share/examples/krb5/kdc.conf",
        "path_type": "hardlink",
        "sha256": "db1f1149b17b5d2ffd892d74e602be07224f300da1041a2724770d5d8dfc008f",
        "sha256_in_prefix": "db1f1149b17b5d2ffd892d74e602be07224f300da1041a2724770d5d8dfc008f",
        "size_in_bytes": 341
      },
      {
        "_path": "share/examples/krb5/krb5.conf",
        "path_type": "hardlink",
        "sha256": "ac5ea37381e4ce97d946f13fbebfa635c38975c0fbd780864775b86fb1e66ffe",
        "sha256_in_prefix": "ac5ea37381e4ce97d946f13fbebfa635c38975c0fbd780864775b86fb1e66ffe",
        "size_in_bytes": 369
      },
      {
        "_path": "share/examples/krb5/services.append",
        "path_type": "hardlink",
        "sha256": "4e8f694996021b0ffd0edc2ef7f36ebc202e697c5ee919f05a9e1d43120db2be",
        "sha256_in_prefix": "4e8f694996021b0ffd0edc2ef7f36ebc202e697c5ee919f05a9e1d43120db2be",
        "size_in_bytes": 598
      },
      {
        "_path": "share/locale/de/LC_MESSAGES/mit-krb5.mo",
        "path_type": "hardlink",
        "sha256": "5abf903bcef1457a835543815328da5c9ea3d8ceaaeefd5f8bba1f56931f7d1b",
        "sha256_in_prefix": "5abf903bcef1457a835543815328da5c9ea3d8ceaaeefd5f8bba1f56931f7d1b",
        "size_in_bytes": 199336
      },
      {
        "_path": "share/locale/en_US/LC_MESSAGES/mit-krb5.mo",
        "path_type": "hardlink",
        "sha256": "77df12674577f3a59f39384ab8b417975995c04fc444376a5b653951d7792549",
        "sha256_in_prefix": "77df12674577f3a59f39384ab8b417975995c04fc444376a5b653951d7792549",
        "size_in_bytes": 410
      },
      {
        "_path": "share/man/man1/compile_et.1",
        "path_type": "hardlink",
        "sha256": "f31c861f180c6397b7796c8c86016ced1b6cef519f76ee26bc3bf5a23665fde7",
        "sha256_in_prefix": "f31c861f180c6397b7796c8c86016ced1b6cef519f76ee26bc3bf5a23665fde7",
        "size_in_bytes": 2549
      },
      {
        "_path": "share/man/man1/k5srvutil.1",
        "path_type": "hardlink",
        "sha256": "5821fce627f488b88a2c3c87be8c49a39e3d044d1b8ac62719f14b8efe3dddf0",
        "sha256_in_prefix": "5821fce627f488b88a2c3c87be8c49a39e3d044d1b8ac62719f14b8efe3dddf0",
        "size_in_bytes": 2868
      },
      {
        "_path": "share/man/man1/kadmin.1",
        "path_type": "hardlink",
        "sha256": "e72965822709c8553e46c3e25479188cae3da6935e2a46d9e867bfe827f635a0",
        "sha256_in_prefix": "e72965822709c8553e46c3e25479188cae3da6935e2a46d9e867bfe827f635a0",
        "size_in_bytes": 32338
      },
      {
        "_path": "share/man/man1/kdestroy.1",
        "path_type": "hardlink",
        "sha256": "f69d58651848daac376fd549298abeefc6e526cd9b958f98f7eba101b0e9cfd6",
        "sha256_in_prefix": "f69d58651848daac376fd549298abeefc6e526cd9b958f98f7eba101b0e9cfd6",
        "size_in_bytes": 2539
      },
      {
        "_path": "share/man/man1/kinit.1",
        "path_type": "hardlink",
        "sha256": "4e0f37b9f6a580d36b184a08b9ed3f055280e6e1e517d59d39df190ef8459fb8",
        "sha256_in_prefix": "4e0f37b9f6a580d36b184a08b9ed3f055280e6e1e517d59d39df190ef8459fb8",
        "size_in_bytes": 8077
      },
      {
        "_path": "share/man/man1/klist.1",
        "path_type": "hardlink",
        "sha256": "5b7c321ef13c6cb27bf19b22c1fa187aced7d812007ea998735ac8b01fc42939",
        "sha256_in_prefix": "5b7c321ef13c6cb27bf19b22c1fa187aced7d812007ea998735ac8b01fc42939",
        "size_in_bytes": 3703
      },
      {
        "_path": "share/man/man1/kpasswd.1",
        "path_type": "hardlink",
        "sha256": "a509e5139a6ddca74e0ff9cc80932e308e4868dea93f9338ba44e8e414947c7a",
        "sha256_in_prefix": "a509e5139a6ddca74e0ff9cc80932e308e4868dea93f9338ba44e8e414947c7a",
        "size_in_bytes": 1866
      },
      {
        "_path": "share/man/man1/krb5-config.1",
        "path_type": "hardlink",
        "sha256": "677f856431e61f48c4a021f7750c5da2168fec8802f67f30a59d76a4f3b5bfd0",
        "sha256_in_prefix": "677f856431e61f48c4a021f7750c5da2168fec8802f67f30a59d76a4f3b5bfd0",
        "size_in_bytes": 3337
      },
      {
        "_path": "share/man/man1/ksu.1",
        "path_type": "hardlink",
        "sha256": "4972211a760d61642e2df5b85c7f7411092c41b6532c178e533047d1730e8bdd",
        "sha256_in_prefix": "4972211a760d61642e2df5b85c7f7411092c41b6532c178e533047d1730e8bdd",
        "size_in_bytes": 17261
      },
      {
        "_path": "share/man/man1/kswitch.1",
        "path_type": "hardlink",
        "sha256": "eb02d166fbae243ce61047102037e0b5ac8c7eeb63217bbedb7222cbe9b5b284",
        "sha256_in_prefix": "eb02d166fbae243ce61047102037e0b5ac8c7eeb63217bbedb7222cbe9b5b284",
        "size_in_bytes": 1660
      },
      {
        "_path": "share/man/man1/ktutil.1",
        "path_type": "hardlink",
        "sha256": "31491b586faefb74189420a05fd2507a1aa3fb3714d435eb3c57c9909527e6e3",
        "sha256_in_prefix": "31491b586faefb74189420a05fd2507a1aa3fb3714d435eb3c57c9909527e6e3",
        "size_in_bytes": 3363
      },
      {
        "_path": "share/man/man1/kvno.1",
        "path_type": "hardlink",
        "sha256": "a34e37576a12fbd438af781c45f4410c4e8b02e3216cecfe13b5d64a5aa91775",
        "sha256_in_prefix": "a34e37576a12fbd438af781c45f4410c4e8b02e3216cecfe13b5d64a5aa91775",
        "size_in_bytes": 3496
      },
      {
        "_path": "share/man/man1/sclient.1",
        "path_type": "hardlink",
        "sha256": "202faa25889c74cee0dd08f703c04ba27762af9904d1c65d3c97b461a14c132e",
        "sha256_in_prefix": "202faa25889c74cee0dd08f703c04ba27762af9904d1c65d3c97b461a14c132e",
        "size_in_bytes": 1284
      },
      {
        "_path": "share/man/man5/.k5identity.5",
        "path_type": "hardlink",
        "sha256": "a27b58476a353f8701f12c453eb5621e17df622d26fc77bd343ef5b60bb66a4d",
        "sha256_in_prefix": "a27b58476a353f8701f12c453eb5621e17df622d26fc77bd343ef5b60bb66a4d",
        "size_in_bytes": 22
      },
      {
        "_path": "share/man/man5/.k5login.5",
        "path_type": "hardlink",
        "sha256": "251f58277a1ccfb7190717eb6890c4f94e6e65467b306ac422c3bbdc21160259",
        "sha256_in_prefix": "251f58277a1ccfb7190717eb6890c4f94e6e65467b306ac422c3bbdc21160259",
        "size_in_bytes": 19
      },
      {
        "_path": "share/man/man5/k5identity.5",
        "path_type": "hardlink",
        "sha256": "7794471449fba9ab297d57d38946e91644305350a491572751d1fc9960f7d837",
        "sha256_in_prefix": "7794471449fba9ab297d57d38946e91644305350a491572751d1fc9960f7d837",
        "size_in_bytes": 3064
      },
      {
        "_path": "share/man/man5/k5login.5",
        "path_type": "hardlink",
        "sha256": "3631edbf5e402d81863ca2d6792a78e2d19e7015bd112e0d38b8b41bae6892ba",
        "sha256_in_prefix": "3631edbf5e402d81863ca2d6792a78e2d19e7015bd112e0d38b8b41bae6892ba",
        "size_in_bytes": 2833
      },
      {
        "_path": "share/man/man5/kadm5.acl.5",
        "file_mode": "text",
        "path_type": "hardlink",
        "prefix_placeholder": "/opt/anaconda1anaconda2anaconda3",
        "sha256": "4fbc9fc0f3d60fe2839aa4ee14574959bfe575b47aaea29cd56ee6c6288b0e1c",
        "sha256_in_prefix": "6ab3cfd1ceebcc97813e4fbc5e6b37cbb951b6d9bf3e33b410aecaf00da22b7c",
        "size_in_bytes": 7473
      },
      {
        "_path": "share/man/man5/kdc.conf.5",
        "file_mode": "text",
        "path_type": "hardlink",
        "prefix_placeholder": "/opt/anaconda1anaconda2anaconda3",
        "sha256": "429b60f5489c69911dd46f84f9c648b2e6072e8d0adbe9afaefdf4c0ecb54e3c",
        "sha256_in_prefix": "0d4a24026be124b48f218eeab180866ba4888e24e289e72c08dac85beaa8238b",
        "size_in_bytes": 39667
      },
      {
        "_path": "share/man/man5/krb5.conf.5",
        "path_type": "hardlink",
        "sha256": "21e7b4bb6c2b1729533c14aa4218eaa5667cc17e103060768dc2f11ba55c63e7",
        "sha256_in_prefix": "21e7b4bb6c2b1729533c14aa4218eaa5667cc17e103060768dc2f11ba55c63e7",
        "size_in_bytes": 49443
      },
      {
        "_path": "share/man/man7/kerberos.7",
        "file_mode": "text",
        "path_type": "hardlink",
        "prefix_placeholder": "/opt/anaconda1anaconda2anaconda3",
        "sha256": "4eb713efb542430fcfbeae2a431288bcf8a63ad90652e47c7fdca10b79ebc77b",
        "sha256_in_prefix": "877515b1afd1e54cd49ee4d464f92402b4debba1ff26855a834d688e50fdeada",
        "size_in_bytes": 8192
      },
      {
        "_path": "share/man/man8/kadmin.local.8",
        "path_type": "hardlink",
        "sha256": "5ca50e711339491b407438689b8781e86c0e43a885ace7a93dca694246cc20be",
        "sha256_in_prefix": "5ca50e711339491b407438689b8781e86c0e43a885ace7a93dca694246cc20be",
        "size_in_bytes": 18
      },
      {
        "_path": "share/man/man8/kadmind.8",
        "file_mode": "text",
        "path_type": "hardlink",
        "prefix_placeholder": "/opt/anaconda1anaconda2anaconda3",
        "sha256": "646d85e7087c4a9436e871b081364e6557a4d174eb7a11a1495e4596a7822fe2",
        "sha256_in_prefix": "3929c7b4517390beb746b956ac738187b54a08a3fe94a2cc06ddfbbe910f49a8",
        "size_in_bytes": 5191
      },
      {
        "_path": "share/man/man8/kdb5_ldap_util.8",
        "path_type": "hardlink",
        "sha256": "af64199d27f95f4c93658f1483c299caf839a51ef0e871f7a58685d770218872",
        "sha256_in_prefix": "af64199d27f95f4c93658f1483c299caf839a51ef0e871f7a58685d770218872",
        "size_in_bytes": 12708
      },
      {
        "_path": "share/man/man8/kdb5_util.8",
        "path_type": "hardlink",
        "sha256": "d1e7959eb8355eb8c25ee79ce7e8f70c46bfdbaee49886e88d8483aa71cb3859",
        "sha256_in_prefix": "d1e7959eb8355eb8c25ee79ce7e8f70c46bfdbaee49886e88d8483aa71cb3859",
        "size_in_bytes": 16272
      },
      {
        "_path": "share/man/man8/kprop.8",
        "file_mode": "text",
        "path_type": "hardlink",
        "prefix_placeholder": "/opt/anaconda1anaconda2anaconda3",
        "sha256": "267d7f2d9bc44bea8246f37e4bc8f10fec809f1c22ec4f4a0ea240093a5e36ff",
        "sha256_in_prefix": "4ed2ead91819bb3abb4ff05262c784cdeb62f471b177a9fcd5bd5c9c5a2961d4",
        "size_in_bytes": 2003
      },
      {
        "_path": "share/man/man8/kpropd.8",
        "file_mode": "text",
        "path_type": "hardlink",
        "prefix_placeholder": "/opt/anaconda1anaconda2anaconda3",
        "sha256": "ac9b2fb4f1ea3dd7eda391c4974f605a555a93ed4b8b16721c06ee91697d87e1",
        "sha256_in_prefix": "47889dfb7381078a4032dd35d99836d77b304496a9165ebb12e6d81c134645c4",
        "size_in_bytes": 5660
      },
      {
        "_path": "share/man/man8/kproplog.8",
        "path_type": "hardlink",
        "sha256": "0d459187d3b1d9a693cdf30e348b6d9b1e5b9ccd62ff70880677d5034f28cdd0",
        "sha256_in_prefix": "0d459187d3b1d9a693cdf30e348b6d9b1e5b9ccd62ff70880677d5034f28cdd0",
        "size_in_bytes": 3368
      },
      {
        "_path": "share/man/man8/krb5kdc.8",
        "path_type": "hardlink",
        "sha256": "8eb531847ed78c44feef734276113957b417ae1dbf064c3a9b2e9ad88fc36b8a",
        "sha256_in_prefix": "8eb531847ed78c44feef734276113957b417ae1dbf064c3a9b2e9ad88fc36b8a",
        "size_in_bytes": 4721
      },
      {
        "_path": "share/man/man8/sserver.8",
        "path_type": "hardlink",
        "sha256": "c26a5e7c98ce30f28f0332acc82ceff8888b2ead8d44c6c3c644e7a6f67e007c",
        "sha256_in_prefix": "c26a5e7c98ce30f28f0332acc82ceff8888b2ead8d44c6c3c644e7a6f67e007c",
        "size_in_bytes": 4536
      }
    ],
    "paths_version": 1
  },
  "platform": "linux",
  "requested_spec": "None",
  "size": 1524969,
  "subdir": "linux-64",
  "timestamp": 1593436520744,
  "track_features": "",
  "url": "https://repo.anaconda.com/pkgs/main/linux-64/krb5-1.18.2-h173b8e3_0.tar.bz2",
  "version": "1.18.2"
}