{
  "arch": "x86_64",
  "build": "h27cfd23_1",
  "build_number": 1,
  "channel": "https://repo.anaconda.com/pkgs/main/linux-64",
  "constrains": [],
  "depends": [
    "libgcc-ng >=7.3.0",
    "ncurses >=6.2,<7.0a0"
  ],
  "extracted_package_dir": "/home/ec2-user/anaconda3/pkgs/libedit-3.1.20210216-h27cfd23_1",
  "features": "",
  "files": [
    "include/editline/readline.h",
    "include/histedit.h",
    "lib/libedit.a",
    "lib/libedit.so",
    "lib/libedit.so.0",
    "lib/libedit.so.0.0.64",
    "lib/pkgconfig/libedit.pc",
    "share/man/man3/editline.3",
    "share/man/man3/el_deletestr.3",
    "share/man/man3/el_end.3",
    "share/man/man3/el_get.3",
    "share/man/man3/el_getc.3",
    "share/man/man3/el_gets.3",
    "share/man/man3/el_init.3",
    "share/man/man3/el_init_fd.3",
    "share/man/man3/el_insertstr.3",
    "share/man/man3/el_line.3",
    "share/man/man3/el_parse.3",
    "share/man/man3/el_push.3",
    "share/man/man3/el_reset.3",
    "share/man/man3/el_resize.3",
    "share/man/man3/el_set.3",
    "share/man/man3/el_source.3",
    "share/man/man3/el_wdeletestr.3",
    "share/man/man3/el_wget.3",
    "share/man/man3/el_wgetc.3",
    "share/man/man3/el_wgets.3",
    "share/man/man3/el_winsertstr.3",
    "share/man/man3/el_wline.3",
    "share/man/man3/el_wparse.3",
    "share/man/man3/el_wpush.3",
    "share/man/man3/el_wset.3",
    "share/man/man3/history_end.3",
    "share/man/man3/history_init.3",
    "share/man/man3/history_w.3",
    "share/man/man3/history_wend.3",
    "share/man/man3/history_winit.3",
    "share/man/man3/tok_end.3",
    "share/man/man3/tok_init.3",
    "share/man/man3/tok_line.3",
    "share/man/man3/tok_reset.3",
    "share/man/man3/tok_str.3",
    "share/man/man3/tok_wend.3",
    "share/man/man3/tok_winit.3",
    "share/man/man3/tok_wline.3",
    "share/man/man3/tok_wreset.3",
    "share/man/man3/tok_wstr.3",
    "share/man/man5/editrc.5",
    "share/man/man7/editline.7"
  ],
  "fn": "libedit-3.1.20210216-h27cfd23_1.tar.bz2",
  "license": "BSD-2-Clause",
  "license_family": "BSD",
  "link": {
    "source": "/home/ec2-user/anaconda3/pkgs/libedit-3.1.20210216-h27cfd23_1",
    "type": 1
  },
  "md5": "3479886f83471bb71c80e5a96a95b62c",
  "name": "libedit",
  "package_tarball_full_path": "/home/ec2-user/anaconda3/pkgs/libedit-3.1.20210216-h27cfd23_1.tar.bz2",
  "paths_data": {
    "paths": [
      {
        "_path": "include/editline/readline.h",
        "path_type": "hardlink",
        "sha256": "a885e87256ebd6aceae5e548e823007802b3c153be69d138733ab982b064d27b",
        "sha256_in_prefix": "a885e87256ebd6aceae5e548e823007802b3c153be69d138733ab982b064d27b",
        "size_in_bytes": 7907
      },
      {
        "_path": "include/histedit.h",
        "path_type": "hardlink",
        "sha256": "9282a07bf308eab60faf8f5ebc9c065f9d62ff400f96c1922c5d2e73d7042ed6",
        "sha256_in_prefix": "9282a07bf308eab60faf8f5ebc9c065f9d62ff400f96c1922c5d2e73d7042ed6",
        "size_in_bytes": 9330
      },
      {
        "_path": "lib/libedit.a",
        "path_type": "hardlink",
        "sha256": "5930ed37f681765d0a301cf72710ca8ad7e3c0cf3bfbb32fa5461b366079f063",
        "sha256_in_prefix": "5930ed37f681765d0a301cf72710ca8ad7e3c0cf3bfbb32fa5461b366079f063",
        "size_in_bytes": 468254
      },
      {
        "_path": "lib/libedit.so",
        "path_type": "softlink",
        "sha256": "3fcd054d836de20daf9afd4bfa4311c85e6c8e97cf7512dc741f2e5a0c24d0b2",
        "size_in_bytes": 259960
      },
      {
        "_path": "lib/libedit.so.0",
        "path_type": "softlink",
        "sha256": "3fcd054d836de20daf9afd4bfa4311c85e6c8e97cf7512dc741f2e5a0c24d0b2",
        "size_in_bytes": 259960
      },
      {
        "_path": "lib/libedit.so.0.0.64",
        "path_type": "hardlink",
        "sha256": "3fcd054d836de20daf9afd4bfa4311c85e6c8e97cf7512dc741f2e5a0c24d0b2",
        "sha256_in_prefix": "3fcd054d836de20daf9afd4bfa4311c85e6c8e97cf7512dc741f2e5a0c24d0b2",
        "size_in_bytes": 259960
      },
      {
        "_path": "lib/pkgconfig/libedit.pc",
        "file_mode": "text",
        "path_type": "hardlink",
        "prefix_placeholder": "/tmp/build/80754af9/libedit_1615827906910/_h_env_placehold_placehold_placehold_placehold_placehold_placehold_placehold_placehold_placehold_placehold_placehold_placehold_placehold_placehold_placehold_placehold_placehold_placehold_placehold_placehold_placeh",
        "sha256": "12f1d56f58658ab89f1aea1a8314ed07ececbd056a0d33a39ad18dfd016a3169",
        "sha256_in_prefix": "76e708e78e9f237ff311d39583b3d8875ff8ce6d802cc1e59e8017f5aefe7ebb",
        "size_in_bytes": 585
      },
      {
        "_path": "share/man/man3/editline.3",
        "path_type": "hardlink",
        "sha256": "eaff47b8ba6fb62fe95c54bcb5488b93c28c4cdc2fec5de47d81d290b14b544b",
        "sha256_in_prefix": "eaff47b8ba6fb62fe95c54bcb5488b93c28c4cdc2fec5de47d81d290b14b544b",
        "size_in_bytes": 23702
      },
      {
        "_path": "share/man/man3/el_deletestr.3",
        "path_type": "softlink",
        "sha256": "eaff47b8ba6fb62fe95c54bcb5488b93c28c4cdc2fec5de47d81d290b14b544b",
        "size_in_bytes": 23702
      },
      {
        "_path": "share/man/man3/el_end.3",
        "path_type": "softlink",
        "sha256": "eaff47b8ba6fb62fe95c54bcb5488b93c28c4cdc2fec5de47d81d290b14b544b",
        "size_in_bytes": 23702
      },
      {
        "_path": "share/man/man3/el_get.3",
        "path_type": "softlink",
        "sha256": "eaff47b8ba6fb62fe95c54bcb5488b93c28c4cdc2fec5de47d81d290b14b544b",
        "size_in_bytes": 23702
      },
      {
        "_path": "share/man/man3/el_getc.3",
        "path_type": "softlink",
        "sha256": "eaff47b8ba6fb62fe95c54bcb5488b93c28c4cdc2fec5de47d81d290b14b544b",
        "size_in_bytes": 23702
      },
      {
        "_path": "share/man/man3/el_gets.3",
        "path_type": "softlink",
        "sha256": "eaff47b8ba6fb62fe95c54bcb5488b93c28c4cdc2fec5de47d81d290b14b544b",
        "size_in_bytes": 23702
      },
      {
        "_path": "share/man/man3/el_init.3",
        "path_type": "softlink",
        "sha256": "eaff47b8ba6fb62fe95c54bcb5488b93c28c4cdc2fec5de47d81d290b14b544b",
        "size_in_bytes": 23702
      },
      {
        "_path": "share/man/man3/el_init_fd.3",
        "path_type": "softlink",
        "sha256": "eaff47b8ba6fb62fe95c54bcb5488b93c28c4cdc2fec5de47d81d290b14b544b",
        "size_in_bytes": 23702
      },
      {
        "_path": "share/man/man3/el_insertstr.3",
        "path_type": "softlink",
        "sha256": "eaff47b8ba6fb62fe95c54bcb5488b93c28c4cdc2fec5de47d81d290b14b544b",
        "size_in_bytes": 23702
      },
      {
        "_path": "share/man/man3/el_line.3",
        "path_type": "softlink",
        "sha256": "eaff47b8ba6fb62fe95c54bcb5488b93c28c4cdc2fec5de47d81d290b14b544b",
        "size_in_bytes": 23702
      },
      {
        "_path": "share/man/man3/el_parse.3",
        "path_type": "softlink",
        "sha256": "eaff47b8ba6fb62fe95c54bcb5488b93c28c4cdc2fec5de47d81d290b14b544b",
        "size_in_bytes": 23702
      },
      {
        "_path": "share/man/man3/el_push.3",
        "path_type": "softlink",
        "sha256": "eaff47b8ba6fb62fe95c54bcb5488b93c28c4cdc2fec5de47d81d290b14b544b",
        "size_in_bytes": 23702
      },
      {
        "_path": "share/man/man3/el_reset.3",
        "path_type": "softlink",
        "sha256": "eaff47b8ba6fb62fe95c54bcb5488b93c28c4cdc2fec5de47d81d290b14b544b",
        "size_in_bytes": 23702
      },
      {
        "_path": "share/man/man3/el_resize.3",
        "path_type": "softlink",
        "sha256": "eaff47b8ba6fb62fe95c54bcb5488b93c28c4cdc2fec5de47d81d290b14b544b",
        "size_in_bytes": 23702
      },
      {
        "_path": "share/man/man3/el_set.3",
        "path_type": "softlink",
        "sha256": "eaff47b8ba6fb62fe95c54bcb5488b93c28c4cdc2fec5de47d81d290b14b544b",
        "size_in_bytes": 23702
      },
      {
        "_path": "share/man/man3/el_source.3",
        "path_type": "softlink",
        "sha256": "eaff47b8ba6fb62fe95c54bcb5488b93c28c4cdc2fec5de47d81d290b14b544b",
        "size_in_bytes": 23702
      },
      {
        "_path": "share/man/man3/el_wdeletestr.3",
        "path_type": "softlink",
        "sha256": "eaff47b8ba6fb62fe95c54bcb5488b93c28c4cdc2fec5de47d81d290b14b544b",
        "size_in_bytes": 23702
      },
      {
        "_path": "share/man/man3/el_wget.3",
        "path_type": "softlink",
        "sha256": "eaff47b8ba6fb62fe95c54bcb5488b93c28c4cdc2fec5de47d81d290b14b544b",
        "size_in_bytes": 23702
      },
      {
        "_path": "share/man/man3/el_wgetc.3",
        "path_type": "softlink",
        "sha256": "eaff47b8ba6fb62fe95c54bcb5488b93c28c4cdc2fec5de47d81d290b14b544b",
        "size_in_bytes": 23702
      },
      {
        "_path": "share/man/man3/el_wgets.3",
        "path_type": "softlink",
        "sha256": "eaff47b8ba6fb62fe95c54bcb5488b93c28c4cdc2fec5de47d81d290b14b544b",
        "size_in_bytes": 23702
      },
      {
        "_path": "share/man/man3/el_winsertstr.3",
        "path_type": "softlink",
        "sha256": "eaff47b8ba6fb62fe95c54bcb5488b93c28c4cdc2fec5de47d81d290b14b544b",
        "size_in_bytes": 23702
      },
      {
        "_path": "share/man/man3/el_wline.3",
        "path_type": "softlink",
        "sha256": "eaff47b8ba6fb62fe95c54bcb5488b93c28c4cdc2fec5de47d81d290b14b544b",
        "size_in_bytes": 23702
      },
      {
        "_path": "share/man/man3/el_wparse.3",
        "path_type": "softlink",
        "sha256": "eaff47b8ba6fb62fe95c54bcb5488b93c28c4cdc2fec5de47d81d290b14b544b",
        "size_in_bytes": 23702
      },
      {
        "_path": "share/man/man3/el_wpush.3",
        "path_type": "softlink",
        "sha256": "eaff47b8ba6fb62fe95c54bcb5488b93c28c4cdc2fec5de47d81d290b14b544b",
        "size_in_bytes": 23702
      },
      {
        "_path": "share/man/man3/el_wset.3",
        "path_type": "softlink",
        "sha256": "eaff47b8ba6fb62fe95c54bcb5488b93c28c4cdc2fec5de47d81d290b14b544b",
        "size_in_bytes": 23702
      },
      {
        "_path": "share/man/man3/history_end.3",
        "path_type": "softlink",
        "sha256": "eaff47b8ba6fb62fe95c54bcb5488b93c28c4cdc2fec5de47d81d290b14b544b",
        "size_in_bytes": 23702
      },
      {
        "_path": "share/man/man3/history_init.3",
        "path_type": "softlink",
        "sha256": "eaff47b8ba6fb62fe95c54bcb5488b93c28c4cdc2fec5de47d81d290b14b544b",
        "size_in_bytes": 23702
      },
      {
        "_path": "share/man/man3/history_w.3",
        "path_type": "softlink",
        "sha256": "eaff47b8ba6fb62fe95c54bcb5488b93c28c4cdc2fec5de47d81d290b14b544b",
        "size_in_bytes": 23702
      },
      {
        "_path": "share/man/man3/history_wend.3",
        "path_type": "softlink",
        "sha256": "eaff47b8ba6fb62fe95c54bcb5488b93c28c4cdc2fec5de47d81d290b14b544b",
        "size_in_bytes": 23702
      },
      {
        "_path": "share/man/man3/history_winit.3",
        "path_type": "softlink",
        "sha256": "eaff47b8ba6fb62fe95c54bcb5488b93c28c4cdc2fec5de47d81d290b14b544b",
        "size_in_bytes": 23702
      },
      {
        "_path": "share/man/man3/tok_end.3",
        "path_type": "softlink",
        "sha256": "eaff47b8ba6fb62fe95c54bcb5488b93c28c4cdc2fec5de47d81d290b14b544b",
        "size_in_bytes": 23702
      },
      {
        "_path": "share/man/man3/tok_init.3",
        "path_type": "softlink",
        "sha256": "eaff47b8ba6fb62fe95c54bcb5488b93c28c4cdc2fec5de47d81d290b14b544b",
        "size_in_bytes": 23702
      },
      {
        "_path": "share/man/man3/tok_line.3",
        "path_type": "softlink",
        "sha256": "eaff47b8ba6fb62fe95c54bcb5488b93c28c4cdc2fec5de47d81d290b14b544b",
        "size_in_bytes": 23702
      },
      {
        "_path": "share/man/man3/tok_reset.3",
        "path_type": "softlink",
        "sha256": "eaff47b8ba6fb62fe95c54bcb5488b93c28c4cdc2fec5de47d81d290b14b544b",
        "size_in_bytes": 23702
      },
      {
        "_path": "share/man/man3/tok_str.3",
        "path_type": "softlink",
        "sha256": "eaff47b8ba6fb62fe95c54bcb5488b93c28c4cdc2fec5de47d81d290b14b544b",
        "size_in_bytes": 23702
      },
      {
        "_path": "share/man/man3/tok_wend.3",
        "path_type": "softlink",
        "sha256": "eaff47b8ba6fb62fe95c54bcb5488b93c28c4cdc2fec5de47d81d290b14b544b",
        "size_in_bytes": 23702
      },
      {
        "_path": "share/man/man3/tok_winit.3",
        "path_type": "softlink",
        "sha256": "eaff47b8ba6fb62fe95c54bcb5488b93c28c4cdc2fec5de47d81d290b14b544b",
        "size_in_bytes": 23702
      },
      {
        "_path": "share/man/man3/tok_wline.3",
        "path_type": "softlink",
        "sha256": "eaff47b8ba6fb62fe95c54bcb5488b93c28c4cdc2fec5de47d81d290b14b544b",
        "size_in_bytes": 23702
      },
      {
        "_path": "share/man/man3/tok_wreset.3",
        "path_type": "softlink",
        "sha256": "eaff47b8ba6fb62fe95c54bcb5488b93c28c4cdc2fec5de47d81d290b14b544b",
        "size_in_bytes": 23702
      },
      {
        "_path": "share/man/man3/tok_wstr.3",
        "path_type": "softlink",
        "sha256": "eaff47b8ba6fb62fe95c54bcb5488b93c28c4cdc2fec5de47d81d290b14b544b",
        "size_in_bytes": 23702
      },
      {
        "_path": "share/man/man5/editrc.5",
        "path_type": "hardlink",
        "sha256": "df25f3fe1791100628cd1475c06e7ffe744fc9802e913e7f65dd40066bc34e85",
        "sha256_in_prefix": "df25f3fe1791100628cd1475c06e7ffe744fc9802e913e7f65dd40066bc34e85",
        "size_in_bytes": 7064
      },
      {
        "_path": "share/man/man7/editline.7",
        "path_type": "hardlink",
        "sha256": "cd185b0732714b6dae4e4b06d392427ac9f28de5084cbb2d0d54e6c2ef46ac4a",
        "sha256_in_prefix": "cd185b0732714b6dae4e4b06d392427ac9f28de5084cbb2d0d54e6c2ef46ac4a",
        "size_in_bytes": 33733
      }
    ],
    "paths_version": 1
  },
  "platform": "linux",
  "requested_spec": "None",
  "size": 194415,
  "subdir": "linux-64",
  "timestamp": 1615827969117,
  "track_features": "",
  "url": "https://repo.anaconda.com/pkgs/main/linux-64/libedit-3.1.20210216-h27cfd23_1.tar.bz2",
  "version": "3.1.20210216"
}